"","V1","V2","V3","V4"
"1",-0.036439065755837,-0.838011551685495,0.861638460132774,6
"2",0.380388381108396,-1.82410746065119,1.11211589453277,6
"3",-1.1737193349726,-1.90874712673647,3.25442745093277,6
"4",0.277658198474657,-0.379870292540174,0.545218522532771,6
"5",0.327562104699232,-1.39718311733615,2.27740084413277,6
"6",0.136925800590278,-2.44723403964539,1.34610080513277,6
"7",-0.132058629592248,-0.0903551826306633,1.13263097113277,6
"8",-0.549269806642539,-1.1158637465133,-0.413826571667229,6
"9",-2.5122499233197,-1.20917631770333,1.86009663163277,6
"10",-0.997474477859882,-1.3995821011114,2.12284916753277,6
