"","V1","V2","V3"
"1",100.2235100389,9.4981202152,3
"2",100.225438,9.497536,3
"3",100.2304700254,9.5021699893,3
"4",100.232517,9.50247,3
"5",100.233717,9.504851,3
"6",100.2353499791,9.498289006,3
"7",100.2361090574,9.5007817731,3
"8",100.236547,9.504161,3
"9",100.2365699728,9.4998950007,3
"10",100.241152,9.50411,3
"11",100.255814646,9.4615218687,3
"12",100.2565459859,9.4781059846,3
"13",100.259561,9.456659,3
"14",100.2620219883,9.4565250089,3
"15",100.2628166283,9.4802778856,3
"16",100.2628500104,9.4846030066,3
"17",100.264199,9.478201,3
"18",100.2647500041,9.4557889834,3
"19",100.265379994,9.472357987,3
"20",100.2654600095,9.4720410074,3
"21",100.2655000086,9.4567920147,3
"22",100.2655191779,9.4573703895,3
"23",100.265602,9.461083,3
"24",100.266694,9.473446,3
"25",100.2674800129,9.4779359841,3
"26",100.2681799883,9.4585280007,3
"27",100.268955,9.520614,3
"28",100.270524,9.459212,3
"29",100.2724713468,9.481346794,3
"30",100.273111,9.527948,3
"31",100.273931,9.517041,3
"32",100.274158,9.518734,3
"33",100.274892,9.527749,3
"34",100.275415,9.522214,3
"35",100.276119,9.494572,3
"36",100.276329,9.49192,3
"37",100.2772496211,9.5013122666,3
"38",100.2774008271,9.5185193125,3
"39",100.278763,9.490022,3
"40",100.279382,9.510532,3
"41",100.2796034108,9.5103669925,3
"42",100.27984,9.510122,3
"43",100.280391,9.521705,3
"44",100.2806164518,9.4806738943,3
"45",100.280875,9.519718,3
"46",100.2811067323,9.5070840879,3
"47",100.2814788392,9.5001057546,3
"48",100.28166,9.500154,3
"49",100.2817124281,9.5081320778,3
"50",100.282260006,9.4871249973,3
"51",100.28338,9.511204,3
"52",100.284064,9.50218,3
"53",100.2841484232,9.5010639947,3
"54",100.2844599898,9.5063450045,3
"55",100.284635,9.494317,3
"56",100.285126,9.492847,3
"57",100.2853845911,9.4790663521,3
"58",100.2856999959,9.5182940047,3
"59",100.28579,9.501034,3
"60",100.285812,9.492709,3
"61",100.2871728549,9.4958215018,3
"62",100.2875514672,9.5190968019,3
"63",100.287663,9.485324,3
"64",100.287865011,9.5025220136,3
"65",100.2887599063,9.5071164408,3
"66",100.289694,9.49361,3
"67",100.289743,9.490377,3
"68",100.2902625056,9.4777194376,3
"69",100.290874,9.487489,3
"70",100.291311,9.505605,3
"71",100.291761,9.495816,3
"72",100.291992,9.491302,3
"73",100.292129,9.493369,3
"74",100.292326,9.492753,3
"75",100.2924,9.491698,3
"76",100.292425,9.508634,3
"77",100.297392,9.490281,3
"78",100.2983708183,9.4861583418,3
"79",100.299366,9.507463,3
"80",100.299902164,9.4986255404,3
"81",100.3000399031,9.4858112959,3
"82",100.3005736603,9.4977073677,3
"83",100.300603,9.497885,3
"84",100.3009000037,9.4874140033,3
"85",100.301960003,9.4861029907,3
"86",100.3026736577,9.4845384837,3
"87",100.303479,9.4861,3
"88",100.3034800036,9.4876060033,3
"89",100.3038935122,9.4897501334,3
"90",100.304236,9.485702,3
"91",100.3047222329,9.4832952061,3
"92",100.304763,9.483132,3
"93",100.3058240702,9.4911429339,3
"94",100.3063442229,9.4777248302,3
"95",100.307638,9.492435,3
"96",100.3081836117,9.4782852319,3
"97",100.3093147678,9.4903038274,3
"98",100.3119905498,9.4788530793,3
"99",100.3124770672,9.485277244,3
"100",100.3130700144,9.5047250035,3
"101",100.3132989713,9.4982848549,3
"102",100.3141237843,9.4956920248,3
"103",100.3161850062,9.5103809923,3
"104",100.319519,9.497863,3
"105",100.3200222591,9.5062366521,3
"106",100.32148,9.503463,3
"107",100.3226699893,9.5079859842,3
"108",100.3234904567,9.4996800259,3
"109",100.323785,9.490621,3
"110",100.325058273,9.5019673549,3
"111",100.326272,9.492359,3
"112",100.3284399997,9.5055449835,3
"113",100.3302300094,9.5135390017,3
"114",100.3310590096,9.5079569988,3
"115",100.336418,9.503334,3
