\relax 
\providecommand\hyper@newdestlabel[2]{}
\providecommand\HyperFirstAtBeginDocument{\AtBeginDocument}
\HyperFirstAtBeginDocument{\ifx\hyper@anchor\@undefined
\global\let\oldcontentsline\contentsline
\gdef\contentsline#1#2#3#4{\oldcontentsline{#1}{#2}{#3}}
\global\let\oldnewlabel\newlabel
\gdef\newlabel#1#2{\newlabelxx{#1}#2}
\gdef\newlabelxx#1#2#3#4#5#6{\oldnewlabel{#1}{{#2}{#3}}}
\AtEndDocument{\ifx\hyper@anchor\@undefined
\let\contentsline\oldcontentsline
\let\newlabel\oldnewlabel
\fi}
\fi}
\global\let\hyper@last\relax 
\gdef\HyperFirstAtBeginDocument#1{#1}
\providecommand\HyField@AuxAddToFields[1]{}
\providecommand\HyField@AuxAddToCoFields[2]{}
\bibstyle{apalike}
\providecommand*\caption@xref[2]{\@setref\relax\@undefined{#1}}
\newlabel{fig:universitycrest}{{\caption@xref {fig:universitycrest}{ on input line 81}}{}{}{figure.caption.1}{}}
\citation{kuhn2014spatial}
\citation{aarseth1972dynamical}
\citation{bate2012stellar}
\citation{bate2012stellar}
\citation{BoyerIR}
\@writefile{toc}{\contentsline {section}{\numberline {1}Introduction}{1}{section.1}}
\@writefile{toc}{\contentsline {paragraph}{}{1}{section*.3}}
\@writefile{toc}{\contentsline {paragraph}{}{1}{section*.4}}
\@writefile{toc}{\contentsline {paragraph}{}{1}{section*.5}}
\@writefile{toc}{\contentsline {paragraph}{}{1}{section*.6}}
\@writefile{toc}{\contentsline {paragraph}{}{1}{section*.7}}
\@writefile{toc}{\contentsline {paragraph}{}{1}{section*.8}}
\@writefile{toc}{\contentsline {subsection}{\numberline {1.1}Subclustering}{1}{subsection.1.1}}
\@writefile{toc}{\contentsline {paragraph}{}{1}{section*.9}}
\@writefile{lof}{\contentsline {figure}{\numberline {1}{\ignorespaces CFD fragmentation of a molecular cloud}}{1}{figure.caption.10}}
\newlabel{fig:jeans-png}{{1}{1}{CFD fragmentation of a molecular cloud}{figure.caption.10}{}}
\citation{palla1999star}
\citation{schlafly2011measuring}
\citation{ramsay2014elt}
\citation{sneath1957application}
\citation{GortonIR}
\citation{ester1996density}
\@writefile{toc}{\contentsline {paragraph}{}{2}{section*.11}}
\@writefile{lof}{\contentsline {figure}{\numberline {2}{\ignorespaces Dendrogram of early build of 4-stage algorithm}}{2}{figure.caption.12}}
\newlabel{fig:herschel-dendrogram}{{2}{2}{Dendrogram of early build of 4-stage algorithm}{figure.caption.12}{}}
\@writefile{toc}{\contentsline {paragraph}{}{2}{section*.13}}
\@writefile{toc}{\contentsline {paragraph}{}{2}{section*.14}}
\@writefile{toc}{\contentsline {paragraph}{}{2}{section*.15}}
\@writefile{toc}{\contentsline {paragraph}{}{2}{section*.16}}
\@writefile{toc}{\contentsline {paragraph}{}{2}{section*.17}}
\@writefile{toc}{\contentsline {section}{\numberline {2}Subclustering Algorithms}{2}{section.2}}
\newlabel{sec:algorithms}{{2}{2}{Subclustering Algorithms}{section.2}{}}
\@writefile{toc}{\contentsline {paragraph}{}{2}{section*.18}}
\@writefile{toc}{\contentsline {paragraph}{}{2}{section*.19}}
\@writefile{toc}{\contentsline {subsection}{\numberline {2.1}Previous Project, DBSCAN and K-Means}{2}{subsection.2.1}}
\@writefile{toc}{\contentsline {paragraph}{}{2}{section*.20}}
\@writefile{toc}{\contentsline {paragraph}{}{2}{section*.21}}
\citation{lloyd1982least}
\citation{kuhn2014spatial}
\citation{GortonIR}
\@writefile{toc}{\contentsline {paragraph}{}{3}{section*.22}}
\@writefile{toc}{\contentsline {paragraph}{}{3}{section*.23}}
\@writefile{lof}{\contentsline {figure}{\numberline {3}{\ignorespaces Comparison between k-means and DBSCAN, showing the benefits and drawbacks of each algorithm, source \url  {https://ogrisel.github.io/scikit-learn.org/sklearn-tutorial/modules/clustering.html}\relax }}{3}{figure.caption.24}}
\newlabel{fig:dbvsk}{{3}{3}{Comparison between k-means and DBSCAN, showing the benefits and drawbacks of each algorithm, source \url {https://ogrisel.github.io/scikit-learn.org/sklearn-tutorial/modules/clustering.html}\relax }{figure.caption.24}{}}
\@writefile{toc}{\contentsline {paragraph}{}{3}{section*.25}}
\@writefile{toc}{\contentsline {paragraph}{}{3}{section*.26}}
\@writefile{toc}{\contentsline {subsection}{\numberline {2.2}Multi-Stage Methods}{3}{subsection.2.2}}
\@writefile{toc}{\contentsline {paragraph}{}{3}{section*.27}}
\@writefile{toc}{\contentsline {subsection}{\numberline {2.3}Subclustering by MYStIX}{3}{subsection.2.3}}
\@writefile{toc}{\contentsline {paragraph}{}{3}{section*.28}}
\@writefile{toc}{\contentsline {paragraph}{}{3}{section*.29}}
\citation{kuhn2014spatial}
\citation{kuhn2014spatial}
\citation{de2001hipparcos}
\citation{van2007hipparcos}
\citation{van2007hipparcos}
\citation{michalik2015tycho}
\@writefile{lof}{\contentsline {figure}{\numberline {4}{\ignorespaces Finite mixture subclustering example from the Orion star-forming region, source \cite  {kuhn2014spatial}\relax }}{4}{figure.caption.30}}
\newlabel{finite}{{4}{4}{Finite mixture subclustering example from the Orion star-forming region, source \cite {kuhn2014spatial}\relax }{figure.caption.30}{}}
\@writefile{toc}{\contentsline {section}{\numberline {3}Potential Subclustering Methods}{4}{section.3}}
\@writefile{toc}{\contentsline {paragraph}{}{4}{section*.31}}
\@writefile{toc}{\contentsline {paragraph}{}{4}{section*.32}}
\@writefile{toc}{\contentsline {paragraph}{}{4}{section*.33}}
\@writefile{toc}{\contentsline {paragraph}{}{4}{section*.34}}
\@writefile{toc}{\contentsline {subsection}{\numberline {3.1}Spatial Mapping}{4}{subsection.3.1}}
\newlabel{sec:spatial}{{3.1}{4}{Spatial Mapping}{subsection.3.1}{}}
\@writefile{toc}{\contentsline {paragraph}{}{4}{section*.35}}
\@writefile{toc}{\contentsline {subsubsection}{\numberline {3.1.1}Introduction}{4}{subsubsection.3.1.1}}
\@writefile{toc}{\contentsline {paragraph}{}{4}{section*.36}}
\newlabel{my-label}{{\caption@xref {my-label}{ on input line 225}}{4}{}{table.caption.37}{}}
\@writefile{lot}{\contentsline {table}{\numberline {1}{\ignorespaces Comparison of Hipparcos and Gaia Performance, Hipparcos statistics reduced from \cite  {van2007hipparcos}\relax }}{4}{table.caption.37}}
\@writefile{toc}{\contentsline {paragraph}{}{4}{section*.38}}
\@writefile{toc}{\contentsline {paragraph}{}{4}{section*.39}}
\@writefile{lof}{\contentsline {figure}{\numberline {5}{\ignorespaces Comparison of parallax and its associated uncertainty between Hipparcos and TGAS datasets\relax }}{5}{figure.caption.40}}
\newlabel{fig:tgas-hip}{{5}{5}{Comparison of parallax and its associated uncertainty between Hipparcos and TGAS datasets\relax }{figure.caption.40}{}}
\@writefile{lot}{\contentsline {table}{\numberline {2}{\ignorespaces Download parameters for figure \ref  {fig:tgas-hip}\relax }}{5}{table.caption.41}}
\newlabel{parameters}{{2}{5}{Download parameters for figure \ref {fig:tgas-hip}\relax }{table.caption.41}{}}
\@writefile{toc}{\contentsline {subsubsection}{\numberline {3.1.2}Method}{5}{subsubsection.3.1.2}}
\@writefile{toc}{\contentsline {paragraph}{}{5}{section*.42}}
\@writefile{toc}{\contentsline {paragraph}{}{5}{section*.43}}
\@writefile{toc}{\contentsline {paragraph}{}{5}{section*.44}}
\@writefile{toc}{\contentsline {subsubsection}{\numberline {3.1.3}Performance and Assessment}{5}{subsubsection.3.1.3}}
\@writefile{toc}{\contentsline {paragraph}{}{5}{section*.45}}
\@writefile{lof}{\contentsline {figure}{\numberline {6}{\ignorespaces Hyades spatial plot using TGAS data\relax }}{5}{figure.caption.46}}
\newlabel{fig:hyades}{{6}{5}{Hyades spatial plot using TGAS data\relax }{figure.caption.46}{}}
\@writefile{toc}{\contentsline {paragraph}{}{5}{section*.47}}
\@writefile{lof}{\contentsline {figure}{\numberline {7}{\ignorespaces Blanco 1 spatial plot using TGAS data\relax }}{5}{figure.caption.48}}
\newlabel{fig:Blanco}{{7}{5}{Blanco 1 spatial plot using TGAS data\relax }{figure.caption.48}{}}
\@writefile{toc}{\contentsline {paragraph}{}{5}{section*.49}}
\citation{povich2013mystix}
\citation{naylor2013bayesian}
\citation{townsley2014massive}
\citation{feigelson2013overview}
\citation{feigelson2013overview}
\@writefile{lof}{\contentsline {figure}{\numberline {8}{\ignorespaces Cygnus-OB2 spatial plot using TGAS data\relax }}{6}{figure.caption.50}}
\newlabel{fig:cyg-ob2}{{8}{6}{Cygnus-OB2 spatial plot using TGAS data\relax }{figure.caption.50}{}}
\@writefile{toc}{\contentsline {paragraph}{}{6}{section*.51}}
\@writefile{lof}{\contentsline {figure}{\numberline {9}{\ignorespaces Histogram of distance uncertainties across all clusters\relax }}{6}{figure.caption.52}}
\newlabel{fig:tgas-hist}{{9}{6}{Histogram of distance uncertainties across all clusters\relax }{figure.caption.52}{}}
\@writefile{toc}{\contentsline {paragraph}{}{6}{section*.53}}
\@writefile{toc}{\contentsline {paragraph}{}{6}{section*.54}}
\@writefile{toc}{\contentsline {subsection}{\numberline {3.2}Ageing}{6}{subsection.3.2}}
\newlabel{sec:ageing}{{3.2}{6}{Ageing}{subsection.3.2}{}}
\@writefile{toc}{\contentsline {paragraph}{}{6}{section*.55}}
\@writefile{toc}{\contentsline {subsubsection}{\numberline {3.2.1}Primary Cluster Catalogues - The MPCM \& MIRES Surveys}{6}{subsubsection.3.2.1}}
\newlabel{sec:MPCMMIRES}{{3.2.1}{6}{Primary Cluster Catalogues - The MPCM \& MIRES Surveys}{subsubsection.3.2.1}{}}
\@writefile{toc}{\contentsline {paragraph}{}{6}{section*.56}}
\@writefile{toc}{\contentsline {paragraph}{}{6}{section*.57}}
\@writefile{toc}{\contentsline {paragraph}{}{6}{section*.58}}
\@writefile{lot}{\contentsline {table}{\numberline {3}{\ignorespaces Summary Source Populations for NGC 2264, source \cite  {feigelson2013overview}\relax }}{6}{table.caption.59}}
\newlabel{mpcm}{{3}{6}{Summary Source Populations for NGC 2264, source \cite {feigelson2013overview}\relax }{table.caption.59}{}}
\citation{marinas2013near}
\citation{baraffe1998evolutionary}
\citation{lim2016constraint}
\citation{bouvier2016gaia}
\citation{sergison2013no}
\citation{dahm2005t}
\citation{soderblom2014ages}
\citation{soderblom2014ages}
\citation{soderblom2014ages}
\@writefile{lof}{\contentsline {figure}{\numberline {10}{\ignorespaces Herschel image of NGC 2264 overlaid with MPCM data\relax }}{7}{figure.caption.60}}
\newlabel{fig:allsources_mpcm}{{10}{7}{Herschel image of NGC 2264 overlaid with MPCM data\relax }{figure.caption.60}{}}
\@writefile{toc}{\contentsline {subsubsection}{\numberline {3.2.2}Surveys of the Cluster NGC 2264}{7}{subsubsection.3.2.2}}
\@writefile{toc}{\contentsline {paragraph}{}{7}{section*.61}}
\@writefile{toc}{\contentsline {paragraph}{}{7}{section*.62}}
\@writefile{toc}{\contentsline {paragraph}{}{7}{section*.63}}
\@writefile{toc}{\contentsline {paragraph}{}{7}{section*.64}}
\@writefile{toc}{\contentsline {paragraph}{}{7}{section*.65}}
\@writefile{toc}{\contentsline {paragraph}{}{7}{section*.66}}
\@writefile{toc}{\contentsline {paragraph}{}{7}{section*.67}}
\@writefile{toc}{\contentsline {subsubsection}{\numberline {3.2.3}Lithium}{7}{subsubsection.3.2.3}}
\@writefile{toc}{\contentsline {paragraph}{}{7}{section*.69}}
\@writefile{lof}{\contentsline {figure}{\numberline {12}{\ignorespaces Li Equivalent Width vs. Colour, from samples of YSO's of different ages, source \cite  {soderblom2014ages}, fig. 8\relax }}{7}{figure.caption.70}}
\newlabel{fig:soderblom}{{12}{7}{Li Equivalent Width vs. Colour, from samples of YSO's of different ages, source \cite {soderblom2014ages}, fig. 8\relax }{figure.caption.70}{}}
\citation{marinas2013near}
\newlabel{fig:allsources}{{11a}{8}{Herschel image of NGC 2264 overlaid with tertiary sources\relax }{figure.caption.68}{}}
\newlabel{sub@fig:allsources}{{a}{8}{Herschel image of NGC 2264 overlaid with tertiary sources\relax }{figure.caption.68}{}}
\newlabel{fig:allsources-aged}{{11b}{8}{Herschel image of NGC 2264 overlaid with matched tertiary sources\relax }{figure.caption.68}{}}
\newlabel{sub@fig:allsources-aged}{{b}{8}{Herschel image of NGC 2264 overlaid with matched tertiary sources\relax }{figure.caption.68}{}}
\@writefile{lof}{\contentsline {figure}{\numberline {11}{\ignorespaces Comparison between raw and matched data\relax }}{8}{figure.caption.68}}
\newlabel{fig:sourcecomparison}{{11}{8}{Comparison between raw and matched data\relax }{figure.caption.68}{}}
\@writefile{toc}{\contentsline {paragraph}{}{8}{section*.71}}
\@writefile{lof}{\contentsline {figure}{\numberline {13}{\ignorespaces An attempt at exponential fitting to find a direct correlation between lithium and age\relax }}{8}{figure.caption.72}}
\newlabel{fig:expfitting}{{13}{8}{An attempt at exponential fitting to find a direct correlation between lithium and age\relax }{figure.caption.72}{}}
\@writefile{toc}{\contentsline {subsubsection}{\numberline {3.2.4}H$^\alpha $ Line Width}{8}{subsubsection.3.2.4}}
\newlabel{halphaageing}{{3.2.4}{8}{\halpha Line Width}{subsubsection.3.2.4}{}}
\@writefile{toc}{\contentsline {paragraph}{}{8}{section*.73}}
\@writefile{toc}{\contentsline {paragraph}{}{8}{section*.74}}
\@writefile{lof}{\contentsline {figure}{\numberline {14}{\ignorespaces An attempt at exponential fitting to find a direct correlation between H$^\alpha $ and age\relax }}{8}{figure.caption.75}}
\newlabel{fig:expfittingha}{{14}{8}{An attempt at exponential fitting to find a direct correlation between \halpha and age\relax }{figure.caption.75}{}}
\@writefile{toc}{\contentsline {paragraph}{}{8}{section*.76}}
\citation{baraffe2015new}
\citation{baraffe2015new}
\citation{soderblom2014ages}
\citation{baraffe2015new}
\citation{baraffe1998evolutionary}
\citation{schlafly2011measuring}
\@writefile{lof}{\contentsline {figure}{\numberline {15}{\ignorespaces RA/DEC position and lithium equivalent line width}}{9}{figure.caption.77}}
\newlabel{fig:pos-li-corr-comp}{{15}{9}{RA/DEC position and lithium equivalent line width}{figure.caption.77}{}}
\@writefile{toc}{\contentsline {subsubsection}{\numberline {3.2.5}Alternative Ageing Methods}{9}{subsubsection.3.2.5}}
\@writefile{toc}{\contentsline {paragraph}{}{9}{section*.78}}
\@writefile{lof}{\contentsline {figure}{\numberline {16}{\ignorespaces An example of change in luminosity as a function of age, source \cite  {baraffe2015new}\relax }}{9}{figure.caption.79}}
\newlabel{fig:aa25481-14-fig2}{{16}{9}{An example of change in luminosity as a function of age, source \cite {baraffe2015new}\relax }{figure.caption.79}{}}
\@writefile{toc}{\contentsline {paragraph}{}{9}{section*.80}}
\@writefile{toc}{\contentsline {paragraph}{}{9}{section*.81}}
\@writefile{toc}{\contentsline {paragraph}{}{9}{section*.82}}
\@writefile{toc}{\contentsline {paragraph}{}{9}{section*.83}}
\citation{dahm2008young}
\@writefile{lof}{\contentsline {figure}{\numberline {17}{\ignorespaces Dust emission at 100$\mu $m, from NASA/IPAC Infrared Science Archive\relax }}{10}{figure.caption.84}}
\newlabel{fig:p244dust}{{17}{10}{Dust emission at 100$\mu $m, from NASA/IPAC Infrared Science Archive\relax }{figure.caption.84}{}}
\newlabel{tab:corrparam}{{\caption@xref {tab:corrparam}{ on input line 528}}{10}{}{table.caption.85}{}}
\@writefile{lot}{\contentsline {table}{\numberline {4}{\ignorespaces Dust emission and correction parameters for NGC 2264\relax }}{10}{table.caption.85}}
\@writefile{toc}{\contentsline {paragraph}{}{10}{section*.86}}
\@writefile{toc}{\contentsline {paragraph}{}{10}{section*.87}}
\@writefile{toc}{\contentsline {paragraph}{Outliers}{10}{section*.89}}
\@writefile{toc}{\contentsline {paragraph}{}{10}{section*.90}}
\@writefile{toc}{\contentsline {paragraph}{}{10}{section*.91}}
\@writefile{toc}{\contentsline {paragraph}{}{10}{section*.92}}
\@writefile{toc}{\contentsline {paragraph}{}{10}{section*.94}}
\@writefile{toc}{\contentsline {subsection}{\numberline {3.3}Extending Previous Project Subclustering Algorithms}{10}{subsection.3.3}}
\@writefile{toc}{\contentsline {paragraph}{}{10}{section*.95}}
\@writefile{toc}{\contentsline {paragraph}{}{10}{section*.96}}
\@writefile{toc}{\contentsline {paragraph}{}{10}{section*.97}}
\@writefile{toc}{\contentsline {paragraph}{}{10}{section*.98}}
\newlabel{fig:isochrones-whole}{{18a}{11}{Colour-temperature diagram with isochrones from the BHAC 15 model, high uncertainty prevents adequate fitting of isochrones\relax }{figure.caption.88}{}}
\newlabel{sub@fig:isochrones-whole}{{a}{11}{Colour-temperature diagram with isochrones from the BHAC 15 model, high uncertainty prevents adequate fitting of isochrones\relax }{figure.caption.88}{}}
\newlabel{fig:isochrones-top}{{18b}{11}{Cropped section of HR diagram, the extremely high uncertainty prevents even low temperature objects from being fitted\relax }{figure.caption.88}{}}
\newlabel{sub@fig:isochrones-top}{{b}{11}{Cropped section of HR diagram, the extremely high uncertainty prevents even low temperature objects from being fitted\relax }{figure.caption.88}{}}
\@writefile{lof}{\contentsline {figure}{\numberline {18}{\ignorespaces Comparison between Bouvier survey and BHAC 15 protostar model\relax }}{11}{figure.caption.88}}
\newlabel{fig:isochrones}{{18}{11}{Comparison between Bouvier survey and BHAC 15 protostar model\relax }{figure.caption.88}{}}
\newlabel{fig:colhacorrcomp}{{19a}{11}{Colour vs. \halpha line width\relax }{figure.caption.93}{}}
\newlabel{sub@fig:colhacorrcomp}{{a}{11}{Colour vs. \halpha line width\relax }{figure.caption.93}{}}
\newlabel{fig:collicorrcomp}{{19b}{11}{Colour vs. lithium line width\relax }{figure.caption.93}{}}
\newlabel{sub@fig:collicorrcomp}{{b}{11}{Colour vs. lithium line width\relax }{figure.caption.93}{}}
\@writefile{lof}{\contentsline {figure}{\numberline {19}{\ignorespaces Attempts at finding significant abundance/colour outliers\relax }}{11}{figure.caption.93}}
\newlabel{fig:outliers-composite}{{19}{11}{Attempts at finding significant abundance/colour outliers\relax }{figure.caption.93}{}}
\citation{perryman1997hyades}
\citation{tremblay2012spectroscopic}
\@writefile{toc}{\contentsline {section}{\numberline {4}Targets}{12}{section.4}}
\@writefile{toc}{\contentsline {subsection}{\numberline {4.1}NGC 2264}{12}{subsection.4.1}}
\@writefile{toc}{\contentsline {paragraph}{}{12}{section*.99}}
\@writefile{toc}{\contentsline {paragraph}{}{12}{section*.100}}
\@writefile{lof}{\contentsline {figure}{\numberline {20}{\ignorespaces An image from the Herschel telescope in the $70\mu m$ band of NGC2264\relax }}{12}{figure.caption.101}}
\newlabel{fig:Driftplotjustimage}{{20}{12}{An image from the Herschel telescope in the $70\mu m$ band of NGC2264\relax }{figure.caption.101}{}}
\@writefile{toc}{\contentsline {subsection}{\numberline {4.2}Hyades}{12}{subsection.4.2}}
\@writefile{toc}{\contentsline {paragraph}{}{12}{section*.102}}
\@writefile{lof}{\contentsline {figure}{\numberline {21}{\ignorespaces HST image of Hyades cluster}}{12}{figure.caption.103}}
\newlabel{fig:heic1309c}{{21}{12}{HST image of Hyades cluster}{figure.caption.103}{}}
\@writefile{toc}{\contentsline {paragraph}{}{12}{section*.104}}
\@writefile{toc}{\contentsline {section}{\numberline {5}Multi-Stage Seeding}{12}{section.5}}
\@writefile{toc}{\contentsline {paragraph}{}{12}{section*.105}}
\@writefile{toc}{\contentsline {paragraph}{}{12}{section*.106}}
\citation{rahmah2016determination}
\@writefile{toc}{\contentsline {paragraph}{}{13}{section*.107}}
\@writefile{lof}{\contentsline {figure}{\numberline {22}{\ignorespaces Overlay of Herschel point source estimate precursor onto Herschel 70$\mu $m image of NGC 2264\relax }}{13}{figure.caption.108}}
\newlabel{fig:herschel-positions}{{22}{13}{Overlay of Herschel point source estimate precursor onto Herschel 70$\mu $m image of NGC 2264\relax }{figure.caption.108}{}}
\@writefile{toc}{\contentsline {subsection}{\numberline {5.1}4-stage Subclustering in R}{13}{subsection.5.1}}
\@writefile{toc}{\contentsline {paragraph}{}{13}{section*.109}}
\@writefile{toc}{\contentsline {paragraph}{}{13}{section*.110}}
\@writefile{lot}{\contentsline {table}{\numberline {5}{\ignorespaces Catalogue members and EPS comparisons for MPCM and Herschel point source estimate\relax }}{13}{table.caption.111}}
\newlabel{cat-comparisons-herschel}{{5}{13}{Catalogue members and EPS comparisons for MPCM and Herschel point source estimate\relax }{table.caption.111}{}}
\@writefile{toc}{\contentsline {paragraph}{}{13}{section*.113}}
\@writefile{toc}{\contentsline {paragraph}{}{13}{section*.114}}
\@writefile{toc}{\contentsline {paragraph}{}{13}{section*.115}}
\@writefile{toc}{\contentsline {paragraph}{}{13}{section*.116}}
\@writefile{toc}{\contentsline {paragraph}{}{13}{section*.117}}
\@writefile{toc}{\contentsline {paragraph}{}{13}{section*.118}}
\citation{rahmah2016determination}
\citation{rahmah2016determination}
\newlabel{fig:herschel-sorted}{{23a}{14}{Sorted distance matrix of Herschel precursor dataset\relax }{figure.caption.112}{}}
\newlabel{sub@fig:herschel-sorted}{{a}{14}{Sorted distance matrix of Herschel precursor dataset\relax }{figure.caption.112}{}}
\newlabel{fig:mpcm-sorted}{{23b}{14}{Sorted distance matrix of MPCM subclustering dataset\relax }{figure.caption.112}{}}
\newlabel{sub@fig:mpcm-sorted}{{b}{14}{Sorted distance matrix of MPCM subclustering dataset\relax }{figure.caption.112}{}}
\@writefile{lof}{\contentsline {figure}{\numberline {23}{\ignorespaces Sorted distance matrices, used to calculate $\epsilon $ values for DBSCAN noise reduction in 4-stage subclustering algorithm, $\epsilon $ cut-off shown in green\relax }}{14}{figure.caption.112}}
\newlabel{fig:sortedmatrix}{{23}{14}{Sorted distance matrices, used to calculate $\epsilon $ values for DBSCAN noise reduction in 4-stage subclustering algorithm, $\epsilon $ cut-off shown in green\relax }{figure.caption.112}{}}
\@writefile{toc}{\contentsline {paragraph}{}{14}{section*.119}}
\@writefile{lof}{\contentsline {figure}{\numberline {24}{\ignorespaces Herschel centroid drift}}{14}{figure.caption.120}}
\newlabel{fig:herschel-centroid-final}{{24}{14}{Herschel centroid drift}{figure.caption.120}{}}
\@writefile{toc}{\contentsline {subsection}{\numberline {5.2}Seeding Using Embedded Protostars}{14}{subsection.5.2}}
\newlabel{sec:protcat}{{5.2}{14}{Seeding Using Embedded Protostars}{subsection.5.2}{}}
\@writefile{toc}{\contentsline {paragraph}{}{14}{section*.122}}
\@writefile{lot}{\contentsline {table}{\numberline {6}{\ignorespaces Catalogue members and EPS comparisons for Buckner catalogue\relax }}{14}{table.caption.123}}
\newlabel{cat-comparisons}{{6}{14}{Catalogue members and EPS comparisons for Buckner catalogue\relax }{table.caption.123}{}}
\@writefile{lof}{\contentsline {figure}{\numberline {26}{\ignorespaces Overlay of protostar locations onto Herschel 70$\mu $m image of NGC 2264}}{14}{figure.caption.124}}
\newlabel{fig:protostar-positions}{{26}{14}{Overlay of protostar locations onto Herschel 70$\mu $m image of NGC 2264}{figure.caption.124}{}}
\@writefile{toc}{\contentsline {paragraph}{}{14}{section*.125}}
\@writefile{lof}{\contentsline {figure}{\numberline {25}{\ignorespaces Subcluster contour plot of NGC 2264, using Herschel estimate catalogue as precursor dataset\relax }}{15}{figure.caption.121}}
\newlabel{fig:herschel-subcluster-final}{{25}{15}{Subcluster contour plot of NGC 2264, using Herschel estimate catalogue as precursor dataset\relax }{figure.caption.121}{}}
\@writefile{lof}{\contentsline {figure}{\numberline {27}{\ignorespaces Sorted distance matrix of protostar catalogue precursor}}{16}{figure.caption.126}}
\newlabel{fig:protostars-dmat}{{27}{16}{Sorted distance matrix of protostar catalogue precursor}{figure.caption.126}{}}
\@writefile{toc}{\contentsline {paragraph}{}{16}{section*.127}}
\@writefile{lof}{\contentsline {figure}{\numberline {28}{\ignorespaces Centroid position drift for protostar precursor}}{16}{figure.caption.128}}
\newlabel{fig:protostar-centres-final}{{28}{16}{Centroid position drift for protostar precursor}{figure.caption.128}{}}
\@writefile{toc}{\contentsline {paragraph}{}{16}{section*.130}}
\@writefile{toc}{\contentsline {section}{\numberline {6}3-D Subclustering}{16}{section.6}}
\@writefile{toc}{\contentsline {paragraph}{}{16}{section*.131}}
\@writefile{toc}{\contentsline {paragraph}{}{16}{section*.132}}
\@writefile{lof}{\contentsline {figure}{\numberline {30}{\ignorespaces Comparison of before and after scaling is applied}}{16}{figure.caption.133}}
\newlabel{fig:comparison-axes}{{30}{16}{Comparison of before and after scaling is applied}{figure.caption.133}{}}
\@writefile{lof}{\contentsline {figure}{\numberline {29}{\ignorespaces Subcluster locations of NGC2264, using protostar catalogue as precursor dataset\relax }}{17}{figure.caption.129}}
\newlabel{fig:auto-subclustered-protostar}{{29}{17}{Subcluster locations of NGC2264, using protostar catalogue as precursor dataset\relax }{figure.caption.129}{}}
\citation{galli2017revised}
\@writefile{lof}{\contentsline {figure}{\numberline {31}{\ignorespaces Sorted distances for Hyades 3D subclustering}}{18}{figure.caption.134}}
\newlabel{fig:3d-eps}{{31}{18}{Sorted distances for Hyades 3D subclustering}{figure.caption.134}{}}
\@writefile{toc}{\contentsline {paragraph}{}{18}{section*.135}}
\@writefile{lof}{\contentsline {figure}{\numberline {32}{\ignorespaces Raw data \& DBSCAN Comparison}}{18}{figure.caption.136}}
\newlabel{fig:comparison-members-png}{{32}{18}{Raw data \& DBSCAN Comparison}{figure.caption.136}{}}
\@writefile{lot}{\contentsline {table}{\numberline {7}{\ignorespaces Comparison of subset of Hyades TGAS data with data processed through DBSCAN\relax }}{18}{table.caption.137}}
\newlabel{tab:TGAS-DBSCAN}{{7}{18}{Comparison of subset of Hyades TGAS data with data processed through DBSCAN\relax }{table.caption.137}{}}
\@writefile{lof}{\contentsline {figure}{\numberline {33}{\ignorespaces Comparison of DBSCAN and k-means subclustering}}{18}{figure.caption.138}}
\newlabel{fig:comparison-dbs-kmeans-png}{{33}{18}{Comparison of DBSCAN and k-means subclustering}{figure.caption.138}{}}
\@writefile{toc}{\contentsline {paragraph}{}{18}{section*.139}}
\@writefile{toc}{\contentsline {paragraph}{}{18}{section*.141}}
\@writefile{toc}{\contentsline {paragraph}{}{18}{section*.142}}
\@writefile{toc}{\contentsline {subsection}{\numberline {6.1}Kinematic Subclustering and the Moving-Cluster Method}{18}{subsection.6.1}}
\@writefile{toc}{\contentsline {paragraph}{}{18}{section*.143}}
\citation{kuhn2014spatial}
\citation{kuhn2014spatial}
\citation{kuhn2014spatial}
\citation{teixeira2005identifying}
\@writefile{lof}{\contentsline {figure}{\numberline {34}{\ignorespaces 3-D Hyades subcluster plot}}{19}{figure.caption.140}}
\newlabel{fig:comp}{{34}{19}{3-D Hyades subcluster plot}{figure.caption.140}{}}
\@writefile{toc}{\contentsline {paragraph}{}{19}{section*.144}}
\@writefile{toc}{\contentsline {section}{\numberline {7}Discussion \& Comparison with Literature}{19}{section.7}}
\@writefile{toc}{\contentsline {subsection}{\numberline {7.1}4-Stage Subclustering}{19}{subsection.7.1}}
\@writefile{toc}{\contentsline {paragraph}{}{19}{section*.146}}
\@writefile{toc}{\contentsline {paragraph}{}{19}{section*.147}}
\@writefile{toc}{\contentsline {paragraph}{}{19}{section*.148}}
\citation{teixeira2005identifying}
\citation{teixeira2005identifying}
\citation{gilmore2012gaia}
\citation{perryman1997hyades}
\newlabel{fig:mystixcomp}{{35a}{20}{\mystix subcluster isothermal ellipsoids, source \cite {kuhn2014spatial}\relax }{figure.caption.145}{}}
\newlabel{sub@fig:mystixcomp}{{a}{20}{\mystix subcluster isothermal ellipsoids, source \cite {kuhn2014spatial}\relax }{figure.caption.145}{}}
\newlabel{fig:protocomp}{{35b}{20}{4-stage protostar catalogue subcluster contours, at $3,4$ and $5 \sigma $ levels\relax }{figure.caption.145}{}}
\newlabel{sub@fig:protocomp}{{b}{20}{4-stage protostar catalogue subcluster contours, at $3,4$ and $5 \sigma $ levels\relax }{figure.caption.145}{}}
\@writefile{lof}{\contentsline {figure}{\numberline {35}{\ignorespaces Comparison between MYStIX results and 4-stage subcluster methods\relax }}{20}{figure.caption.145}}
\newlabel{fig:4stagecomp}{{35}{20}{Comparison between \mystix results and 4-stage subcluster methods\relax }{figure.caption.145}{}}
\@writefile{lof}{\contentsline {figure}{\numberline {36}{\ignorespaces Correlation between dust emission and massive stars within NGC 2264, source \cite  {teixeira2005identifying}\relax }}{20}{figure.caption.149}}
\newlabel{fig:dustemission}{{36}{20}{Correlation between dust emission and massive stars within NGC 2264, source \cite {teixeira2005identifying}\relax }{figure.caption.149}{}}
\@writefile{toc}{\contentsline {paragraph}{}{20}{section*.150}}
\@writefile{toc}{\contentsline {paragraph}{}{20}{section*.151}}
\@writefile{toc}{\contentsline {subsection}{\numberline {7.2}Spatial Subclustering}{20}{subsection.7.2}}
\@writefile{toc}{\contentsline {paragraph}{}{20}{section*.152}}
\citation{perryman1997hyades}
\citation{perryman1997hyades}
\citation{de2001hipparcos}
\citation{de2001hipparcos}
\citation{de2001hipparcos}
\citation{popowski1997mathematics}
\@writefile{lof}{\contentsline {figure}{\numberline {37}{\ignorespaces 3-D mapping of Hyades cluster using Hipparcos data, similarities between this figure and \ref  {fig:comp} can be seen, however there is no direct comparison as subclustering was not attempted, source \cite  {perryman1997hyades}\relax }}{21}{figure.caption.153}}
\newlabel{fig:hyades_3d}{{37}{21}{3-D mapping of Hyades cluster using Hipparcos data, similarities between this figure and \ref {fig:comp} can be seen, however there is no direct comparison as subclustering was not attempted, source \cite {perryman1997hyades}\relax }{figure.caption.153}{}}
\@writefile{toc}{\contentsline {paragraph}{}{21}{section*.155}}
\@writefile{toc}{\contentsline {paragraph}{}{21}{section*.156}}
\@writefile{toc}{\contentsline {paragraph}{}{21}{section*.157}}
\@writefile{toc}{\contentsline {section}{\numberline {8}Conclusion}{21}{section.8}}
\@writefile{toc}{\contentsline {paragraph}{}{21}{section*.158}}
\@writefile{toc}{\contentsline {paragraph}{}{21}{section*.159}}
\@writefile{toc}{\contentsline {paragraph}{}{21}{section*.160}}
\@writefile{toc}{\contentsline {paragraph}{}{21}{section*.161}}
\@writefile{lof}{\contentsline {figure}{\numberline {38}{\ignorespaces Comparison between Hyades 3-D survey using secular parallax \cite  {de2001hipparcos} and parallax subclustering}}{22}{figure.caption.154}}
\newlabel{fig:hyades-2-comp}{{38}{22}{Comparison between Hyades 3-D survey using secular parallax \cite {de2001hipparcos} and parallax subclustering}{figure.caption.154}{}}
\@writefile{toc}{\contentsline {paragraph}{}{22}{section*.162}}
\@writefile{toc}{\contentsline {paragraph}{}{22}{section*.163}}
\citation{roser2011deep}
\citation{piskunov2008tidal}
\citation{knodlseder2000cygnus}
\@writefile{toc}{\contentsline {section}{\numberline {9}Appendix}{i}{section.9}}
\@writefile{toc}{\contentsline {subsection}{\numberline {9.1}Acknowledgements}{i}{subsection.9.1}}
\@writefile{toc}{\contentsline {paragraph}{}{i}{section*.164}}
\@writefile{toc}{\contentsline {subsection}{\numberline {9.2}Properties of TGAS downloads}{i}{subsection.9.2}}
\@writefile{lot}{\contentsline {table}{\numberline {8}{\ignorespaces Properties of TGAS downloads\relax }}{i}{table.caption.165}}
\newlabel{table:tgasprops}{{8}{i}{Properties of TGAS downloads\relax }{table.caption.165}{}}
\@writefile{toc}{\contentsline {subsection}{\numberline {9.3}Python Script to Calculate $\epsilon $}{i}{subsection.9.3}}
\newlabel{epsscript}{{9.3}{i}{Python Script to Calculate $\epsilon $}{subsection.9.3}{}}
\@writefile{toc}{\contentsline {paragraph}{}{i}{section*.166}}
\@writefile{lol}{\contentsline {lstlisting}{../Data/Subclustering/eps\textunderscore calc.py}{i}{lstlisting.-1}}
\@writefile{toc}{\contentsline {subsection}{\numberline {9.4}4-Stage Subclustering Script}{i}{subsection.9.4}}
\newlabel{4sub}{{9.4}{i}{4-Stage Subclustering Script}{subsection.9.4}{}}
\@writefile{toc}{\contentsline {subsection}{\numberline {9.5}Subclustering Plotting Script}{ii}{subsection.9.5}}
\newlabel{4subplot}{{9.5}{ii}{Subclustering Plotting Script}{subsection.9.5}{}}
\@writefile{toc}{\contentsline {subsection}{\numberline {9.6}3-D Subclustering Script}{iv}{subsection.9.6}}
\newlabel{3dsub}{{9.6}{iv}{3-D Subclustering Script}{subsection.9.6}{}}
\citation{kuhn2014spatial}
\citation{soderblom2014ages}
\citation{baraffe2015new}
\citation{teixeira2005identifying}
\@writefile{toc}{\contentsline {subsection}{\numberline {9.7}$\sigma $ Calculation For 4-Stage Method Contours}{v}{subsection.9.7}}
\@writefile{toc}{\contentsline {paragraph}{}{v}{section*.167}}
\@writefile{lot}{\contentsline {table}{\numberline {9}{\ignorespaces Cluster contours and associated $\sigma $ values\relax }}{v}{table.caption.168}}
\newlabel{Clusterstdev}{{9}{v}{Cluster contours and associated $\sigma $ values\relax }{table.caption.168}{}}
\@writefile{toc}{\contentsline {section}{List of Figures}{v}{table.caption.168}}
\citation{perryman1997hyades}
\citation{de2001hipparcos}
\citation{van2007hipparcos}
\citation{feigelson2013overview}
\bibdata{reportbib}
\bibcite{aarseth1972dynamical}{Aarseth and Hills, 1972}
\bibcite{baraffe1998evolutionary}{Baraffe et\nobreakspace  {}al., 1998}
\bibcite{baraffe2015new}{Baraffe et\nobreakspace  {}al., 2015}
\bibcite{bate2012stellar}{Bate, 2012}
\bibcite{bouvier2016gaia}{Bouvier et\nobreakspace  {}al., 2016}
\bibcite{BoyerIR}{Boyer, 2016}
\bibcite{dahm2008young}{Dahm, 2008}
\bibcite{dahm2005t}{Dahm and Simon, 2005}
\bibcite{de2001hipparcos}{de\nobreakspace  {}Bruijne et\nobreakspace  {}al., 2001}
\bibcite{ester1996density}{Ester et\nobreakspace  {}al., 1996}
\bibcite{feigelson2013overview}{Feigelson et\nobreakspace  {}al., 2013}
\bibcite{galli2017revised}{Galli et\nobreakspace  {}al., 2017}
\bibcite{gilmore2012gaia}{Gilmore et\nobreakspace  {}al., 2012}
\@writefile{toc}{\contentsline {section}{List of Tables}{vi}{section*.169}}
\@writefile{toc}{\contentsline {section}{References}{vi}{section*.170}}
\bibcite{GortonIR}{Gorton, 2015}
\bibcite{knodlseder2000cygnus}{Knodlseder, 2000}
\bibcite{kuhn2014spatial}{Kuhn et\nobreakspace  {}al., 2014}
\bibcite{lim2016constraint}{Lim et\nobreakspace  {}al., 2016}
\bibcite{lloyd1982least}{Lloyd, 1982}
\bibcite{marinas2013near}{Mari{\~n}as et\nobreakspace  {}al., 2013}
\bibcite{michalik2015tycho}{Michalik et\nobreakspace  {}al., 2015}
\bibcite{naylor2013bayesian}{Naylor et\nobreakspace  {}al., 2013}
\bibcite{palla1999star}{Palla and Stahler, 1999}
\bibcite{perryman1997hyades}{Perryman et\nobreakspace  {}al., 1997}
\bibcite{piskunov2008tidal}{Piskunov et\nobreakspace  {}al., 2008}
\bibcite{popowski1997mathematics}{Popowski and Gould, 1997}
\bibcite{povich2013mystix}{Povich et\nobreakspace  {}al., 2013}
\bibcite{rahmah2016determination}{Rahmah and Sitanggang, 2016}
\bibcite{ramsay2014elt}{Ramsay et\nobreakspace  {}al., 2014}
\bibcite{roser2011deep}{R{\"o}ser et\nobreakspace  {}al., 2011}
\bibcite{schlafly2011measuring}{Schlafly and Finkbeiner, 2011}
\bibcite{sergison2013no}{Sergison et\nobreakspace  {}al., 2013}
\bibcite{sneath1957application}{Sneath, 1957}
\bibcite{soderblom2014ages}{Soderblom et\nobreakspace  {}al., 2014}
\bibcite{teixeira2005identifying}{Teixeira et\nobreakspace  {}al., 2005}
\bibcite{townsley2014massive}{Townsley et\nobreakspace  {}al., 2014}
\bibcite{tremblay2012spectroscopic}{Tremblay et\nobreakspace  {}al., 2012}
\bibcite{van2007hipparcos}{Van\nobreakspace  {}Leeuwen, 2007}
\bibstyle{plain}
