\contentsline {figure}{\numberline {1}{\ignorespaces CFD fragmentation of a molecular cloud}}{1}{figure.caption.10}
\contentsline {figure}{\numberline {2}{\ignorespaces Dendrogram of early build of 4-stage algorithm}}{2}{figure.caption.12}
\contentsline {figure}{\numberline {3}{\ignorespaces Comparison between k-means and DBSCAN, showing the benefits and drawbacks of each algorithm, source \url {https://ogrisel.github.io/scikit-learn.org/sklearn-tutorial/modules/clustering.html}\relax }}{3}{figure.caption.24}
\contentsline {figure}{\numberline {4}{\ignorespaces Finite mixture subclustering example from the Orion star-forming region, source \cite {kuhn2014spatial}\relax }}{4}{figure.caption.30}
\contentsline {figure}{\numberline {5}{\ignorespaces Comparison of parallax and its associated uncertainty between Hipparcos and TGAS datasets\relax }}{5}{figure.caption.40}
\contentsline {figure}{\numberline {6}{\ignorespaces Hyades spatial plot using TGAS data\relax }}{5}{figure.caption.46}
\contentsline {figure}{\numberline {7}{\ignorespaces Blanco 1 spatial plot using TGAS data\relax }}{5}{figure.caption.48}
\contentsline {figure}{\numberline {8}{\ignorespaces Cygnus-OB2 spatial plot using TGAS data\relax }}{6}{figure.caption.50}
\contentsline {figure}{\numberline {9}{\ignorespaces Histogram of distance uncertainties across all clusters\relax }}{6}{figure.caption.52}
\contentsline {figure}{\numberline {10}{\ignorespaces Herschel image of NGC 2264 overlaid with MPCM data\relax }}{7}{figure.caption.60}
\contentsline {figure}{\numberline {12}{\ignorespaces Li Equivalent Width vs. Colour, from samples of YSO's of different ages, source \cite {soderblom2014ages}, fig. 8\relax }}{7}{figure.caption.70}
\contentsline {figure}{\numberline {11}{\ignorespaces Comparison between raw and matched data\relax }}{8}{figure.caption.68}
\contentsline {figure}{\numberline {13}{\ignorespaces An attempt at exponential fitting to find a direct correlation between lithium and age\relax }}{8}{figure.caption.72}
\contentsline {figure}{\numberline {14}{\ignorespaces An attempt at exponential fitting to find a direct correlation between H$^\alpha $ and age\relax }}{8}{figure.caption.75}
\contentsline {figure}{\numberline {15}{\ignorespaces RA/DEC position and lithium equivalent line width}}{9}{figure.caption.77}
\contentsline {figure}{\numberline {16}{\ignorespaces An example of change in luminosity as a function of age, source \cite {baraffe2015new}\relax }}{9}{figure.caption.79}
\contentsline {figure}{\numberline {17}{\ignorespaces Dust emission at 100$\mu $m, from NASA/IPAC Infrared Science Archive\relax }}{10}{figure.caption.84}
\contentsline {figure}{\numberline {18}{\ignorespaces Comparison between Bouvier survey and BHAC 15 protostar model\relax }}{11}{figure.caption.88}
\contentsline {figure}{\numberline {19}{\ignorespaces Attempts at finding significant abundance/colour outliers\relax }}{11}{figure.caption.93}
\contentsline {figure}{\numberline {20}{\ignorespaces An image from the Herschel telescope in the $70\mu m$ band of NGC2264\relax }}{12}{figure.caption.101}
\contentsline {figure}{\numberline {21}{\ignorespaces HST image of Hyades cluster}}{12}{figure.caption.103}
\contentsline {figure}{\numberline {22}{\ignorespaces Overlay of Herschel point source estimate precursor onto Herschel 70$\mu $m image of NGC 2264\relax }}{13}{figure.caption.108}
\contentsline {figure}{\numberline {23}{\ignorespaces Sorted distance matrices, used to calculate $\epsilon $ values for DBSCAN noise reduction in 4-stage subclustering algorithm, $\epsilon $ cut-off shown in green\relax }}{14}{figure.caption.112}
\contentsline {figure}{\numberline {24}{\ignorespaces Herschel centroid drift}}{14}{figure.caption.120}
\contentsline {figure}{\numberline {26}{\ignorespaces Overlay of protostar locations onto Herschel 70$\mu $m image of NGC 2264}}{14}{figure.caption.124}
\contentsline {figure}{\numberline {25}{\ignorespaces Subcluster contour plot of NGC 2264, using Herschel estimate catalogue as precursor dataset\relax }}{15}{figure.caption.121}
\contentsline {figure}{\numberline {27}{\ignorespaces Sorted distance matrix of protostar catalogue precursor}}{16}{figure.caption.126}
\contentsline {figure}{\numberline {28}{\ignorespaces Centroid position drift for protostar precursor}}{16}{figure.caption.128}
\contentsline {figure}{\numberline {30}{\ignorespaces Comparison of before and after scaling is applied}}{16}{figure.caption.133}
\contentsline {figure}{\numberline {29}{\ignorespaces Subcluster locations of NGC2264, using protostar catalogue as precursor dataset\relax }}{17}{figure.caption.129}
\contentsline {figure}{\numberline {31}{\ignorespaces Sorted distances for Hyades 3D subclustering}}{18}{figure.caption.134}
\contentsline {figure}{\numberline {32}{\ignorespaces Raw data \& DBSCAN Comparison}}{18}{figure.caption.136}
\contentsline {figure}{\numberline {33}{\ignorespaces Comparison of DBSCAN and k-means subclustering}}{18}{figure.caption.138}
\contentsline {figure}{\numberline {34}{\ignorespaces 3-D Hyades subcluster plot}}{19}{figure.caption.140}
\contentsline {figure}{\numberline {35}{\ignorespaces Comparison between MYStIX results and 4-stage subcluster methods\relax }}{20}{figure.caption.145}
\contentsline {figure}{\numberline {36}{\ignorespaces Correlation between dust emission and massive stars within NGC 2264, source \cite {teixeira2005identifying}\relax }}{20}{figure.caption.149}
\contentsline {figure}{\numberline {37}{\ignorespaces 3-D mapping of Hyades cluster using Hipparcos data, similarities between this figure and \ref {fig:comp} can be seen, however there is no direct comparison as subclustering was not attempted, source \cite {perryman1997hyades}\relax }}{21}{figure.caption.153}
\contentsline {figure}{\numberline {38}{\ignorespaces Comparison between Hyades 3-D survey using secular parallax \cite {de2001hipparcos} and parallax subclustering}}{22}{figure.caption.154}
