_RAJ2000,_DEJ2000,DS,RAJ2000,DEJ2000,Vmag,V-Rc,V-Ic,Jmag,J-H,H-K,SpType,EW(Ha),EW(Li),logL
100.21321,9.74628,186,06 40 51.17,+09 44 46.6,12.04,0.26,0.63,10.74,0.51,0.57,G0,3.5,0.1,30.57
100.2845,9.50628,368,06 41 08.28,+09 30 22.6,18.34,1.12,2.85,13.77,0.82,0.41,M3,117.2,0.14,
100.23488,9.59817,230,06 40 56.37,+09 35 53.4,16.92,1.12,2.23,12.78,0.99,0.77,K3,84.1,0.19,
100.234,9.60858,227,06 40 56.16,+09 36 30.9,16.93,0.98,2.17,11.89,1.08,0.77,K3,67.2,0.21,
100.3165,9.436,422,06 41 15.96,+09 26 09.6,16.34,0.91,2.05,12.7,0.79,0.46,M0,174.1,0.22,
100.15271,9.86769,73,06 40 36.65,+09 52 03.7,16.34,0.91,1.96,12.73,0.97,0.66,K4,87.0,0.29,
100.27792,9.57931,349,06 41 06.70,+09 34 45.5,15.74,1.06,2.24,11.76,1.48,1.05,G6:,49.4,0.29,
100.32,9.45861,425,06 41 16.80,+09 27 31.0,15.27,0.79,1.49,12.65,0.77,0.38,K4,91.4,0.29,30.14
100.25817,9.83442,284,06 41 01.96,+09 50 03.9,18.52,1.02,2.62,14.31,0.57,0.23,M2,41.0,0.32,
100.27483,9.65392,341,06 41 05.96,+09 39 14.1,19.06,1.19,3.42,13.74,0.62,0.38,M5,7.4,0.32,
100.1735,9.52886,102,06 40 41.64,+09 31 43.9,21.0,1.07,3.53,15.67,0.6,0.39,M5,7.4,0.34,
100.24508,9.51597,253,06 40 58.82,+09 30 57.5,14.07,0.77,1.18,11.72,0.76,0.44,K2-3,14.3,0.34,30.48
100.27879,9.49006,352,06 41 06.91,+09 29 24.2,17.94,1.1,2.46,13.42,0.87,0.62,M0,27.4,0.34,
100.2255,9.81211,209,06 40 54.12,+09 48 43.6,17.81,1.24,2.24,14.16,0.73,0.36,M2-3,353.0,0.35,
100.25654,9.62464,279,06 41 01.57,+09 37 28.7,18.41,1.01,2.32,14.75,0.92,0.5,M2.5,154.8,0.36,
100.276,9.41772,344,06 41 06.24,+09 25 03.8,17.92,1.08,3.11,13.12,0.63,0.32,M5,34.7,0.36,30.1
100.20163,9.81075,153,06 40 48.39,+09 48 38.7,16.59,0.88,1.88,13.43,1.14,0.83,M0-1,70.1,0.37,
100.20792,9.61381,167,06 40 49.90,+09 36 49.7,15.17,0.53,1.55,12.4,0.79,0.45,K4,66.3,0.37,30.05
100.17683,9.53928,110,06 40 42.44,+09 32 21.4,15.35,0.67,1.32,13.23,0.59,0.12,K4,0.5,0.38,30.45
100.26783,9.41453,311,06 41 04.28,+09 24 52.3,16.12,0.99,2.0,12.72,0.79,0.48,M0,101.8,0.38,29.99
100.17229,9.85072,99,06 40 41.35,+09 51 02.6,15.81,0.94,1.77,12.81,0.78,0.31,K7,24.5,0.39,
100.33025,9.51364,440,06 41 19.26,+09 30 49.1,19.77,1.11,3.36,14.83,0.69,0.31,M5,9.5,0.39,
100.27596,9.55267,343,06 41 06.23,+09 33 09.6,19.39,1.21,3.32,14.11,0.76,0.3,M5,26.5,0.4,
100.22992,9.84719,213,06 40 55.18,+09 50 49.9,15.81,0.77,1.64,13.07,0.65,0.19,K5-6,2.8,0.41,30.63
100.24092,9.85253,243,06 40 57.82,+09 51 09.1,16.99,,2.46,13.15,0.85,0.36,M2.5,4.7,0.41,
100.25771,9.64492,283,06 41 01.85,+09 38 41.7,14.56,0.68,1.37,12.24,0.63,0.23,K4,1.5,0.41,30.72
100.30537,9.53058,405,06 41 13.29,+09 31 50.1,17.64,1.16,3.1,12.74,0.7,0.35,M4,79.9,0.41,30.46
100.18271,9.79889,120,06 40 43.85,+09 47 56.0,18.98,0.99,2.65,14.78,0.61,0.23,M3.5,3.8,0.42,
100.20029,9.89439,148,06 40 48.07,+09 53 39.8,15.82,0.74,1.46,13.5,0.6,0.17,K4-5,1.6,0.42,30.6
100.20558,9.88181,163,06 40 49.34,+09 52 54.5,17.28,1.23,2.38,15.83,1.7,1.42,M0-1,78.5,0.42,30.24
100.28792,9.50236,376,06 41 09.10,+09 30 08.5,16.07,0.99,2.03,12.95,0.98,0.42,K7,27.0,0.42,30.09
100.3195,9.49794,424,06 41 16.68,+09 29 52.6,14.94,0.96,2.04,11.27,0.77,0.43,K5,6.3,0.42,31.02
100.23538,9.49844,231,06 40 56.49,+09 29 54.4,18.42,1.05,3.19,13.62,0.68,0.22,M5,6.4,0.43,30.21
100.18079,9.50936,116,06 40 43.39,+09 30 33.7,18.03,1.06,2.5,13.97,0.85,0.72,M0,15.4,0.44,
100.21083,9.91592,179,06 40 50.60,+09 54 57.3,14.92,0.74,1.44,12.47,0.78,0.41,K2,11.2,0.44,30.62
100.24921,9.86364,266,06 40 59.81,+09 51 49.1,16.84,0.67,2.12,13.46,0.68,0.17,M2,4.9,0.44,30.94
100.31554,9.43808,421,06 41 15.73,+09 26 17.1,13.9,0.73,1.53,11.31,0.65,0.22,K5,1.9,0.44,31.13
100.33621,9.47919,444,06 41 20.69,+09 28 45.1,18.27,0.97,2.71,14.2,0.76,0.36,M4,4.5,0.44,
100.17425,9.8625,104,06 40 41.82,+09 51 45.0,14.82,0.85,1.66,12.75,0.9,0.88,K5,22.9,0.45,
100.24075,9.51389,242,06 40 57.78,+09 30 50.0,16.5,0.95,2.02,12.95,0.84,0.29,K7,7.3,0.46,30.13
100.22604,9.82233,211,06 40 54.25,+09 49 20.4,16.49,1.04,2.02,13.1,0.82,0.48,M0-1,161.1,0.47,
100.23283,9.62178,225,06 40 55.88,+09 37 18.4,19.53,1.12,3.3,14.46,0.59,0.31,M5,11.2,0.47,
100.23662,9.63044,234,06 40 56.79,+09 37 49.6,15.05,0.72,1.72,12.22,0.72,0.25,K5,113.2,0.47,30.8
100.25308,9.85631,273,06 41 00.74,+09 51 22.7,14.57,0.67,1.4,12.19,0.6,0.19,K4-5,1.6,0.47,30.96
100.27229,9.55375,333,06 41 05.35,+09 33 13.5,15.32,0.75,1.65,12.48,0.64,0.2,K5,2.7,0.47,30.9
100.29092,9.4535,379,06 41 09.82,+09 27 12.6,14.46,0.73,1.62,11.54,0.66,0.24,K5,3.1,0.47,30.99
100.26746,9.86719,310,06 41 04.19,+09 52 01.9,15.21,0.73,1.45,12.77,0.62,0.2,K6,1.3,0.48,
100.27133,9.86236,326,06 41 05.12,+09 51 44.5,15.11,0.72,1.42,12.74,0.62,0.15,K5,1.7,0.48,
100.17754,9.89667,111,06 40 42.61,+09 53 48.0,16.21,0.85,1.64,13.51,0.68,0.14,K4-5,1.2,0.49,30.42
100.26083,9.85067,288,06 41 02.60,+09 51 02.4,19.07,1.04,3.06,14.2,0.55,0.28,M5,14.3,0.49,
100.26554,9.46111,304,06 41 03.73,+09 27 40.0,16.11,0.9,1.74,13.34,0.67,0.18,K4,2.8,0.49,31.38
100.26679,9.81911,307,06 41 04.03,+09 49 08.8,16.2,0.94,2.01,12.58,0.67,0.19,K7,2.0,0.49,30.8
100.28337,9.51133,365,06 41 08.01,+09 30 40.8,15.62,0.69,1.39,13.26,0.63,0.16,K4,0.5,0.49,30.24
100.29296,9.47589,383,06 41 10.31,+09 28 33.2,16.31,0.89,1.69,17.14,0.54,0.35,K5,103.1,0.49,
100.14658,9.86586,66,06 40 35.18,+09 51 57.1,16.11,1.11,2.08,12.61,0.78,0.36,M1,16.4,0.5,
100.27142,9.81542,327,06 41 05.14,+09 48 55.5,16.31,0.83,1.63,13.58,0.63,0.2,K5-6,1.5,0.5,30.39
100.27408,9.805,338,06 41 05.78,+09 48 18.0,15.11,0.84,1.77,12.02,0.76,0.46,K6-7,30.1,0.5,30.47
100.31012,9.55603,411,06 41 14.43,+09 33 21.7,15.51,0.9,1.75,12.6,0.66,0.21,K5,1.9,0.5,30.89
100.19554,9.81339,140,06 40 46.93,+09 48 48.2,16.63,0.86,1.77,13.72,0.68,0.25,K6,2.0,0.51,
100.22046,9.7485,198,06 40 52.91,+09 44 54.6,15.63,0.86,1.71,12.7,0.84,0.6,K5-6,8.5,0.51,30.84
100.27975,9.46333,355,06 41 07.14,+09 27 48.0,14.98,0.8,1.62,12.21,0.66,0.19,M0,4.9,0.51,31.0
100.31308,9.44581,416,06 41 15.14,+09 26 44.9,16.97,0.99,2.23,13.0,0.94,0.46,M0.5,24.5,0.51,
100.23096,9.62331,217,06 40 55.43,+09 37 23.9,15.66,0.78,1.79,12.7,0.68,0.22,K6,1.8,0.52,30.86
100.232,9.85392,220,06 40 55.68,+09 51 14.1,15.6,0.8,1.62,12.87,0.68,0.18,K5-6,8.0,0.52,30.59
100.23242,9.67169,223,06 40 55.78,+09 40 18.1,17.67,1.14,2.29,13.92,0.71,0.26,M2.5,4.6,0.52,
100.28063,9.43194,359,06 41 07.35,+09 25 55.0,15.4,0.84,1.67,12.59,0.64,0.27,K4,1.7,0.52,30.93
100.31129,9.57031,413,06 41 14.71,+09 34 13.1,17.79,1.04,2.28,13.87,1.18,0.9,K8-M0,94.3,0.52,
100.14529,9.90211,65,06 40 34.87,+09 54 07.6,18.19,1.08,2.79,13.74,0.69,0.24,M4,5.2,0.53,29.82
100.18567,9.80356,122,06 40 44.56,+09 48 12.8,15.43,0.86,1.66,12.58,0.69,0.16,K6,2.9,0.53,30.74
100.21696,9.8705,191,06 40 52.07,+09 52 13.8,16.13,0.83,1.84,13.1,0.7,0.18,K8-M0,2.0,0.53,30.28
100.22096,9.88325,201,06 40 53.03,+09 52 59.7,16.89,0.92,2.01,13.4,0.73,0.21,M0,10.4,0.53,30.24
100.23042,9.66636,214,06 40 55.30,+09 39 58.9,18.52,1.07,3.06,13.68,0.73,0.37,M3,54.8,0.53,
100.29233,9.52461,381,06 41 10.16,+09 31 28.6,17.78,1.02,2.76,13.48,0.7,0.17,M3.5,3.6,0.53,
100.30546,9.46864,407,06 41 13.31,+09 28 07.1,16.55,0.83,1.85,13.42,0.7,0.18,K5,1.9,0.53,30.44
100.21708,9.48722,192,06 40 52.10,+09 29 14.0,19.45,1.32,3.23,14.15,0.82,0.48,M4,36.4,0.54,30.24
100.26325,9.43414,297,06 41 03.18,+09 26 02.9,17.74,0.93,2.23,14.22,0.72,0.19,M0,3.9,0.54,29.92
100.267,9.58928,308,06 41 04.08,+09 35 21.4,16.64,0.94,2.27,13.03,0.69,0.24,M2.5,4.3,0.54,30.67
100.33746,9.56014,447,06 41 20.99,+09 33 36.5,14.94,0.86,1.55,12.43,0.8,0.44,K6,10.6,0.54,31.05
100.13654,9.85814,56,06 40 32.77,+09 51 29.3,15.92,0.98,1.88,12.68,0.68,0.21,K6,2.7,0.55,30.71
100.27392,9.51717,337,06 41 05.74,+09 31 01.8,15.42,0.85,1.86,12.37,0.78,0.29,K5,8.0,0.55,30.72
100.27429,9.88006,339,06 41 05.83,+09 52 48.2,15.78,0.85,1.68,12.99,0.7,0.23,K7,0.9,0.55,30.35
100.33825,9.5375,448,06 41 21.18,+09 32 15.0,17.85,0.97,2.35,14.08,0.67,0.22,M2.5,5.8,0.55,31.19
100.20254,9.54797,155,06 40 48.61,+09 32 52.7,16.88,0.93,1.99,13.69,0.65,0.24,K8,2.0,0.56,30.33
100.21946,9.73914,196,06 40 52.67,+09 44 20.9,16.57,0.96,2.15,13.2,0.69,0.24,M2,2.2,0.56,30.68
100.23175,9.64042,219,06 40 55.62,+09 38 25.5,18.46,1.0,2.79,14.12,0.73,0.35,M3.5,8.4,0.56,
100.2375,9.55056,237,06 40 57.00,+09 33 02.0,20.34,1.77,3.85,13.8,1.3,0.53,M3.5,6.9,0.56,30.26
100.2625,9.62658,294,06 41 03.00,+09 37 35.7,19.11,1.61,3.41,13.28,1.39,0.73,M1,34.1,0.57,
100.16771,9.84775,88,06 40 40.25,+09 50 51.9,15.55,1.08,2.1,,,,M3.5,3.5,0.58,31.01
100.23658,9.50003,233,06 40 56.78,+09 30 00.1,20.22,1.13,3.63,14.53,0.65,0.1,M5,10.1,0.58,
100.31183,9.54344,415,06 41 14.84,+09 32 36.4,16.92,1.12,2.77,12.52,0.83,0.26,M3,2.2,0.58,30.29
100.33258,9.45128,442,06 41 19.82,+09 27 04.6,18.01,0.96,2.68,13.92,0.71,0.2,M5,2.4,0.58,
100.19458,9.907,138,06 40 46.70,+09 54 25.2,15.6,0.95,2.07,12.22,0.7,0.23,M1,2.6,0.59,30.38
100.21388,9.50372,187,06 40 51.33,+09 30 13.4,18.02,0.98,2.71,13.87,0.68,0.22,M5,3.5,0.59,
100.15212,9.84608,71,06 40 36.51,+09 50 45.9,17.05,0.96,2.42,12.93,0.79,0.43,M2,21.1,0.6,30.49
100.23271,9.85853,224,06 40 55.85,+09 51 30.7,17.34,0.92,2.17,13.86,0.71,0.23,M2,2.7,0.6,
100.24504,9.65531,252,06 40 58.81,+09 39 19.1,17.1,0.92,2.09,13.66,0.68,0.27,M0,27.9,0.6,30.54
100.25704,9.80619,280,06 41 01.69,+09 48 22.3,14.15,0.81,1.57,11.35,0.66,0.17,K5,1.8,0.6,31.19
100.27475,9.45481,340,06 41 05.94,+09 27 17.3,16.53,1.07,2.76,12.27,0.73,0.23,M3,2.6,0.6,
100.30467,9.51867,401,06 41 13.12,+09 31 07.2,19.29,1.32,3.08,14.39,0.72,0.28,M6,8.3,0.6,
100.31,9.44944,410,06 41 14.40,+09 26 58.0,17.27,0.98,2.8,13.03,0.7,0.22,M3.5,2.7,0.6,
100.192,9.79731,132,06 40 46.08,+09 47 50.3,17.49,0.98,2.28,13.89,0.74,0.14,M2,0.7,0.61,
100.19683,9.51928,145,06 40 47.24,+09 31 09.4,19.25,0.98,3.01,14.53,1.15,0.77,M4.5,14.7,0.61,
100.16312,9.81689,83,06 40 39.15,+09 49 00.8,20.24,1.34,3.54,14.63,0.88,0.36,M5.5,6.5,0.62,
100.19533,9.54194,139,06 40 46.88,+09 32 31.0,17.75,0.97,2.68,13.73,0.71,0.25,M3.5,3.9,0.62,30.5
100.20521,9.91203,162,06 40 49.25,+09 54 43.3,18.87,1.13,2.65,14.74,0.62,0.25,M4,6.2,0.62,
100.14504,9.76264,64,06 40 34.81,+09 45 45.5,18.31,0.94,2.54,14.23,0.64,0.36,M2.5,4.2,0.63,
100.2305,9.50233,215,06 40 55.32,+09 30 08.4,19.8,0.98,3.08,15.2,0.75,0.16,M5,2.4,0.63,
100.27108,9.55022,324,06 41 05.06,+09 33 00.8,17.87,0.93,2.36,14.13,0.76,0.21,M2,9.4,0.63,30.56
100.28221,9.47036,364,06 41 07.73,+09 28 13.3,16.41,0.92,2.15,13.11,0.77,0.16,M1-2,2.3,0.63,30.42
100.20108,9.61078,152,06 40 48.26,+09 36 38.8,16.36,0.95,2.21,12.92,0.75,0.22,M1,2.5,0.66,30.48
100.26525,9.47217,303,06 41 03.66,+09 28 19.8,17.48,0.95,2.49,13.86,0.83,0.26,M1,9.3,0.66,
100.273,9.52808,335,06 41 05.52,+09 31 41.1,18.05,1.13,2.89,13.13,0.77,0.29,M3,3.0,0.66,30.63
100.23683,9.86575,235,06 40 56.84,+09 51 56.7,17.53,0.93,2.2,14.02,0.72,0.29,M2.5,1.1,0.67,
100.24554,9.48144,254,06 40 58.93,+09 28 53.2,16.8,0.97,2.5,13.0,0.7,0.25,M1,17.8,0.67,30.04
100.25321,9.86883,274,06 41 00.77,+09 52 07.8,18.11,0.97,2.02,14.03,0.91,0.49,K8-M0,8.0,0.67,
100.26404,9.60142,300,06 41 03.37,+09 36 05.1,19.02,1.51,3.33,13.42,1.16,0.49,M3,18.3,0.67,
100.34662,9.51008,453,06 41 23.19,+09 30 36.3,17.59,0.93,2.33,13.92,0.72,0.17,M1,7.6,0.67,29.98
100.198,9.82469,147,06 40 47.52,+09 49 28.9,14.11,0.67,1.32,11.53,0.86,0.66,K3,12.8,0.68,31.17
100.25096,9.65211,269,06 41 00.23,+09 39 07.6,18.97,0.98,2.7,14.87,0.67,0.32,M3.5,3.3,0.68,
100.21738,9.87536,193,06 40 52.17,+09 52 31.3,17.28,1.01,2.18,13.73,0.75,0.25,M2,3.5,0.7,30.49
100.22087,9.89,200,06 40 53.01,+09 53 24.0,20.12,1.07,2.94,15.34,0.64,0.4,M6:,7.1,0.7,
100.24025,9.53075,241,06 40 57.66,+09 31 50.7,18.96,1.03,2.95,14.49,0.6,0.25,M5,5.5,0.7,
100.28092,9.57608,361,06 41 07.42,+09 34 33.9,19.77,1.2,3.01,15.15,0.68,0.16,M4,52.6,0.7,
100.32108,9.54797,426,06 41 17.06,+09 32 52.7,18.13,0.98,2.46,14.27,0.69,0.22,M2.5,2.1,0.73,
100.18021,9.52097,114,06 40 43.25,+09 31 15.5,17.52,0.98,2.66,13.49,0.66,0.26,M3,5.0,0.76,30.47
100.20875,9.51125,171,06 40 50.10,+09 30 40.5,19.77,1.35,3.43,14.31,1.06,0.37,M5,4.5,0.8,
