\contentsline {table}{\numberline {1}{\ignorespaces Lim survey data\relax }}{7}{table.1}
\contentsline {table}{\numberline {2}{\ignorespaces Lim survey data\relax }}{10}{table.2}
\contentsline {table}{\numberline {3}{\ignorespaces Fitting parameters for polynomial fits, using equation \ref {eq:polysum}\relax }}{12}{table.caption.29}
\contentsline {table}{\numberline {4}{\ignorespaces Fitting parameters for exponential fit\relax }}{14}{table.caption.36}
\contentsline {table}{\numberline {5}{\ignorespaces Fitting parameters for mapping RA and DEC to \textit {xpixel} and \textit {ypixel}, note that only a first order fit is required\relax }}{21}{table.caption.69}
\contentsline {table}{\numberline {6}{\ignorespaces Catalogue members and EPS comparisons for MPCM and Herschel point source estimate\relax }}{28}{table.caption.84}
\contentsline {table}{\numberline {7}{\ignorespaces Catalogue members and EPS comparisons for Buckner catalogue\relax }}{34}{table.caption.95}
