\relax 
\providecommand\hyper@newdestlabel[2]{}
\providecommand\HyperFirstAtBeginDocument{\AtBeginDocument}
\HyperFirstAtBeginDocument{\ifx\hyper@anchor\@undefined
\global\let\oldcontentsline\contentsline
\gdef\contentsline#1#2#3#4{\oldcontentsline{#1}{#2}{#3}}
\global\let\oldnewlabel\newlabel
\gdef\newlabel#1#2{\newlabelxx{#1}#2}
\gdef\newlabelxx#1#2#3#4#5#6{\oldnewlabel{#1}{{#2}{#3}}}
\AtEndDocument{\ifx\hyper@anchor\@undefined
\let\contentsline\oldcontentsline
\let\newlabel\oldnewlabel
\fi}
\fi}
\global\let\hyper@last\relax 
\gdef\HyperFirstAtBeginDocument#1{#1}
\providecommand\HyField@AuxAddToFields[1]{}
\providecommand\HyField@AuxAddToCoFields[2]{}
\bibstyle{apalike}
\providecommand*\caption@xref[2]{\@setref\relax\@undefined{#1}}
\newlabel{fig:ngc2264}{{\caption@xref {fig:ngc2264}{ on input line 78}}{1}{}{figure.caption.1}{}}
\@writefile{toc}{\contentsline {section}{\numberline {1}Schedule}{2}{section.1}}
\@writefile{toc}{\contentsline {section}{\numberline {2}Weeks 1-3 - Initial Research}{3}{section.2}}
\@writefile{toc}{\contentsline {subsection}{\numberline {2.1}TGAS Astrometric data}{3}{subsection.2.1}}
\newlabel{par:TGAS}{{2.1}{3}{TGAS Astrometric data}{subsection.2.1}{}}
\@writefile{lof}{\contentsline {figure}{\numberline {1}{\ignorespaces The Hyades Cluster plotted using TGAS data, size indicates magnitude of the star.\relax }}{3}{figure.caption.3}}
\newlabel{fig:Hyades}{{1}{3}{The Hyades Cluster plotted using TGAS data, size indicates magnitude of the star.\relax }{figure.caption.3}{}}
\@writefile{lof}{\contentsline {figure}{\numberline {2}{\ignorespaces NGC 2451A has too much loss of members to be considered for this data to be useful\relax }}{3}{figure.caption.4}}
\newlabel{fig:NGC202451A}{{2}{3}{NGC 2451A has too much loss of members to be considered for this data to be useful\relax }{figure.caption.4}{}}
\@writefile{lof}{\contentsline {figure}{\numberline {3}{\ignorespaces Blanco 1 has extremely large uncertainties, which cover the entire range of the cluster itself.\relax }}{4}{figure.caption.5}}
\newlabel{fig:blanco-1}{{3}{4}{Blanco 1 has extremely large uncertainties, which cover the entire range of the cluster itself.\relax }{figure.caption.5}{}}
\@writefile{lof}{\contentsline {figure}{\numberline {4}{\ignorespaces TGAS data does not match well to low magnitude cluster members.\relax }}{4}{figure.caption.6}}
\newlabel{fig:Matching}{{4}{4}{TGAS data does not match well to low magnitude cluster members.\relax }{figure.caption.6}{}}
\@writefile{toc}{\contentsline {subsubsection}{\numberline {2.1.1}Lithium Abundance, and other spectroscopic features}{4}{subsubsection.2.1.1}}
\@writefile{toc}{\contentsline {subsection}{\numberline {2.2}Target - NGC 2264}{4}{subsection.2.2}}
\citation{povich2013mystix}
\citation{GortonIR}
\citation{BoyerIR}
\citation{GortonIR}
\citation{marinas2013near}
\@writefile{lof}{\contentsline {figure}{\numberline {5}{\ignorespaces A Herschel telescope image of NGC 2264\relax }}{5}{figure.caption.7}}
\newlabel{fig:herschel}{{5}{5}{A Herschel telescope image of NGC 2264\relax }{figure.caption.7}{}}
\@writefile{toc}{\contentsline {paragraph}{}{5}{section*.8}}
\@writefile{toc}{\contentsline {section}{\numberline {3}Previous Projects by University Students}{5}{section.3}}
\@writefile{toc}{\contentsline {paragraph}{}{5}{section*.9}}
\@writefile{toc}{\contentsline {paragraph}{}{5}{section*.10}}
\@writefile{toc}{\contentsline {section}{\numberline {4}Ageing and Bootstrapping}{5}{section.4}}
\@writefile{toc}{\contentsline {paragraph}{}{5}{section*.11}}
\citation{lim2016constraint}
\@writefile{toc}{\contentsline {subsection}{\numberline {4.1}Matching of lithium and aged stars}{6}{subsection.4.1}}
\@writefile{toc}{\contentsline {subsubsection}{\numberline {4.1.1}Lim Lithium Survey}{6}{subsubsection.4.1.1}}
\newlabel{par:lim}{{4.1.1}{6}{Lim Lithium Survey}{subsubsection.4.1.1}{}}
\@writefile{lof}{\contentsline {figure}{\numberline {6}{\ignorespaces Lim survey plotted against MPCM survey\relax }}{6}{figure.caption.12}}
\@writefile{toc}{\contentsline {paragraph}{}{6}{section*.13}}
\@writefile{toc}{\contentsline {paragraph}{}{6}{section*.14}}
\gdef \LT@i {\LT@entry 
    {1}{33.8059pt}\LT@entry 
    {1}{45.2644pt}\LT@entry 
    {1}{47.00055pt}\LT@entry 
    {1}{31.02808pt}\LT@entry 
    {1}{27.62524pt}\LT@entry 
    {1}{29.42427pt}\LT@entry 
    {1}{30.26259pt}\LT@entry 
    {1}{45.74783pt}\LT@entry 
    {1}{33.38922pt}\LT@entry 
    {1}{30.7988pt}\LT@entry 
    {1}{33.8059pt}}
\@writefile{lot}{\contentsline {table}{\numberline {1}{\ignorespaces Lim survey data\relax }}{7}{table.1}}
\newlabel{tab:Lim Survey}{{1}{7}{Lim survey data\relax }{table.1}{}}
\@writefile{toc}{\contentsline {paragraph}{}{7}{section*.15}}
\@writefile{lof}{\contentsline {figure}{\numberline {7}{\ignorespaces Lithium abundances from Lim survey\relax }}{7}{figure.caption.16}}
\newlabel{fig:lithtext}{{7}{7}{Lithium abundances from Lim survey\relax }{figure.caption.16}{}}
\citation{bouvier2016gaia}
\citation{lim2016constraint}
\citation{sergison2013no}
\@writefile{toc}{\contentsline {subsubsection}{\numberline {4.1.2}Bouvier Lithium Survey}{8}{subsubsection.4.1.2}}
\newlabel{par:bouvier}{{4.1.2}{8}{Bouvier Lithium Survey}{subsubsection.4.1.2}{}}
\@writefile{lof}{\contentsline {figure}{\numberline {8}{\ignorespaces Bouvier survey plotted against MPCM survey\relax }}{8}{figure.caption.17}}
\@writefile{toc}{\contentsline {paragraph}{}{8}{section*.18}}
\@writefile{toc}{\contentsline {paragraph}{}{8}{section*.19}}
\@writefile{toc}{\contentsline {paragraph}{}{8}{section*.20}}
\@writefile{toc}{\contentsline {subsubsection}{\numberline {4.1.3}Sergison Lithium Survey}{8}{subsubsection.4.1.3}}
\newlabel{par:sergison}{{4.1.3}{8}{Sergison Lithium Survey}{subsubsection.4.1.3}{}}
\@writefile{lof}{\contentsline {figure}{\numberline {9}{\ignorespaces Sergison survey plotted against MPCM survey\relax }}{8}{figure.caption.21}}
\@writefile{toc}{\contentsline {paragraph}{}{8}{section*.22}}
\@writefile{toc}{\contentsline {paragraph}{}{8}{section*.23}}
\@writefile{toc}{\contentsline {subsection}{\numberline {4.2}H$^\alpha $ Surveys}{9}{subsection.4.2}}
\@writefile{toc}{\contentsline {subsubsection}{\numberline {4.2.1}Dahm H$^\alpha $ and Lithium Survey}{9}{subsubsection.4.2.1}}
\newlabel{par:dahm}{{4.2.1}{9}{Dahm \halpha and Lithium Survey}{subsubsection.4.2.1}{}}
\@writefile{lof}{\contentsline {figure}{\numberline {10}{\ignorespaces Dahm survey plotted against MPCM survey\relax }}{9}{figure.caption.24}}
\@writefile{toc}{\contentsline {paragraph}{}{9}{section*.25}}
\@writefile{toc}{\contentsline {paragraph}{}{9}{section*.26}}
\gdef \LT@ii {\LT@entry 
    {1}{45.95888pt}\LT@entry 
    {1}{47.69502pt}\LT@entry 
    {1}{27.62526pt}\LT@entry 
    {1}{25.39748pt}\LT@entry 
    {1}{24.22243pt}\LT@entry 
    {1}{27.62526pt}\LT@entry 
    {1}{24.22243pt}\LT@entry 
    {1}{24.22243pt}\LT@entry 
    {4}{32.18782pt}\LT@entry 
    {1}{34.1322pt}\LT@entry 
    {1}{32.30083pt}\LT@entry 
    {1}{27.62526pt}\LT@entry 
    {1}{0.0pt}\LT@entry 
    {1}{0.0pt}\LT@entry 
    {1}{0.0pt}}
\@writefile{lot}{\contentsline {table}{\numberline {2}{\ignorespaces Lim survey data\relax }}{10}{table.2}}
\newlabel{tab:Dahm Survey}{{2}{10}{Lim survey data\relax }{table.2}{}}
\@writefile{lof}{\contentsline {figure}{\numberline {11}{\ignorespaces Log plot of H$^\alpha $ and lithium equivalent line widths in the Dahm database\relax }}{10}{figure.caption.27}}
\newlabel{fig:dahmliha}{{11}{10}{Log plot of \halpha and lithium equivalent line widths in the Dahm database\relax }{figure.caption.27}{}}
\@writefile{lof}{\contentsline {figure}{\numberline {12}{\ignorespaces Aged members of the Dahm Survey overlaid onto Herschel data\relax }}{11}{figure.caption.28}}
\newlabel{fig:ds9_3}{{12}{11}{Aged members of the Dahm Survey overlaid onto Herschel data\relax }{figure.caption.28}{}}
\@writefile{toc}{\contentsline {subsection}{\numberline {4.3}Bootstrapping}{11}{subsection.4.3}}
\@writefile{toc}{\contentsline {subsubsection}{\numberline {4.3.1}Polynomial Fitting}{11}{subsubsection.4.3.1}}
\@writefile{lol}{\contentsline {lstlisting}{"../Data/fitting.py"}{11}{lstlisting.-1}}
\@writefile{lol}{\contentsline {lstlisting}{"../Data/fitting2.py"}{12}{lstlisting.-2}}
\newlabel{eq:polysum}{{1}{12}{Polynomial Fitting}{equation.4.1}{}}
\@writefile{lot}{\contentsline {table}{\numberline {3}{\ignorespaces Fitting parameters for polynomial fits, using equation \ref  {eq:polysum}\relax }}{12}{table.caption.29}}
\newlabel{tab:fitparam}{{3}{12}{Fitting parameters for polynomial fits, using equation \ref {eq:polysum}\relax }{table.caption.29}{}}
\@writefile{lof}{\contentsline {figure}{\numberline {13}{\ignorespaces Polynomial fitting of matched surveys\relax }}{13}{figure.caption.30}}
\newlabel{fig:Fitting}{{13}{13}{Polynomial fitting of matched surveys\relax }{figure.caption.30}{}}
\@writefile{lof}{\contentsline {figure}{\numberline {14}{\ignorespaces Polynomial fitting of matched surveys\relax }}{13}{figure.caption.31}}
\newlabel{fig:Fitting2}{{14}{13}{Polynomial fitting of matched surveys\relax }{figure.caption.31}{}}
\@writefile{toc}{\contentsline {paragraph}{}{13}{section*.32}}
\@writefile{toc}{\contentsline {paragraph}{}{13}{section*.33}}
\@writefile{toc}{\contentsline {subsubsection}{\numberline {4.3.2}Exponential Fitting}{13}{subsubsection.4.3.2}}
\@writefile{toc}{\contentsline {paragraph}{}{13}{section*.34}}
\@writefile{lol}{\contentsline {lstlisting}{"../Data/expfitting.py"}{14}{lstlisting.-3}}
\@writefile{lof}{\contentsline {figure}{\numberline {15}{\ignorespaces Exponential fit of matched surveys\relax }}{14}{figure.caption.35}}
\newlabel{fig:expfitting}{{15}{14}{Exponential fit of matched surveys\relax }{figure.caption.35}{}}
\@writefile{lot}{\contentsline {table}{\numberline {4}{\ignorespaces Fitting parameters for exponential fit\relax }}{14}{table.caption.36}}
\newlabel{tab:fitparamexp}{{4}{14}{Fitting parameters for exponential fit\relax }{table.caption.36}{}}
\citation{baraffe2015new}
\citation{lim2016constraint}
\@writefile{toc}{\contentsline {paragraph}{}{15}{section*.37}}
\@writefile{toc}{\contentsline {subsubsection}{\numberline {4.3.3}Conclusion}{15}{subsubsection.4.3.3}}
\@writefile{toc}{\contentsline {paragraph}{}{15}{section*.38}}
\@writefile{toc}{\contentsline {paragraph}{}{15}{section*.39}}
\@writefile{lof}{\contentsline {figure}{\numberline {16}{\ignorespaces Exponential fit for H$^\alpha $ \relax }}{15}{figure.caption.40}}
\newlabel{fig:expfittingha}{{16}{15}{Exponential fit for \halpha \relax }{figure.caption.40}{}}
\@writefile{toc}{\contentsline {section}{\numberline {5}Finding Other Useful Correlations}{15}{section.5}}
\@writefile{toc}{\contentsline {subsection}{\numberline {5.1}Isochrone fitting}{15}{subsection.5.1}}
\@writefile{toc}{\contentsline {paragraph}{Method}{15}{section*.41}}
\@writefile{toc}{\contentsline {paragraph}{Conclusion}{15}{section*.42}}
\@writefile{toc}{\contentsline {paragraph}{}{15}{section*.43}}
\@writefile{lof}{\contentsline {figure}{\numberline {17}{\ignorespaces Isochrones created from BHAC15 models\relax }}{16}{figure.caption.44}}
\newlabel{fig:isochrones}{{17}{16}{Isochrones created from BHAC15 models\relax }{figure.caption.44}{}}
\@writefile{lof}{\contentsline {figure}{\numberline {18}{\ignorespaces Mari{\~n}as ageing database fitted to isochrones\relax }}{16}{figure.caption.45}}
\newlabel{fig:Isochrones2}{{18}{16}{\Marinas ageing database fitted to isochrones\relax }{figure.caption.45}{}}
\@writefile{toc}{\contentsline {subsection}{\numberline {5.2}Finding Correlations Using R}{16}{subsection.5.2}}
\@writefile{toc}{\contentsline {paragraph}{}{16}{section*.46}}
\@writefile{toc}{\contentsline {paragraph}{}{17}{section*.47}}
\@writefile{toc}{\contentsline {paragraph}{}{17}{section*.48}}
\@writefile{lof}{\contentsline {figure}{\numberline {19}{\ignorespaces Negative correlation of temperature and lithium equivalent line width\relax }}{17}{figure.caption.49}}
\newlabel{fig:BouvierTeffLithium}{{19}{17}{Negative correlation of temperature and lithium equivalent line width\relax }{figure.caption.49}{}}
\@writefile{lof}{\contentsline {figure}{\numberline {20}{\ignorespaces Outlying cluster members\relax }}{17}{figure.caption.50}}
\newlabel{fig:TLIOutliers}{{20}{17}{Outlying cluster members\relax }{figure.caption.50}{}}
\@writefile{toc}{\contentsline {paragraph}{}{17}{section*.51}}
\@writefile{toc}{\contentsline {paragraph}{}{18}{section*.52}}
\@writefile{lof}{\contentsline {figure}{\numberline {21}{\ignorespaces Matching together the Sergison and Bouvier surveys\relax }}{18}{figure.caption.53}}
\newlabel{fig:ArcsecondMatching}{{21}{18}{Matching together the Sergison and Bouvier surveys\relax }{figure.caption.53}{}}
\@writefile{lof}{\contentsline {figure}{\numberline {22}{\ignorespaces Visible magnitude vs. effective temperature, note the 3 clear outliers at low temperatures, potential FU-Orionis candidates.\relax }}{18}{figure.caption.54}}
\newlabel{fig:TVmag}{{22}{18}{Visible magnitude vs. effective temperature, note the 3 clear outliers at low temperatures, potential FU-Orionis candidates.\relax }{figure.caption.54}{}}
\@writefile{toc}{\contentsline {subsubsection}{\numberline {5.2.1}An Aside: FU-Orionis Candidates}{18}{subsubsection.5.2.1}}
\@writefile{toc}{\contentsline {paragraph}{}{18}{section*.55}}
\citation{GortonIR}
\citation{BoyerIR}
\@writefile{lof}{\contentsline {figure}{\numberline {23}{\ignorespaces Location of FU-Ori candidates in the southern section of NGC 2264\relax }}{19}{figure.caption.56}}
\newlabel{fig:fu-ori}{{23}{19}{Location of FU-Ori candidates in the southern section of NGC 2264\relax }{figure.caption.56}{}}
\@writefile{toc}{\contentsline {subsection}{\numberline {5.3}Subclustering Through Clumps}{19}{subsection.5.3}}
\@writefile{toc}{\contentsline {paragraph}{}{19}{section*.57}}
\@writefile{toc}{\contentsline {paragraph}{}{19}{section*.58}}
\newlabel{fig:2masserror}{{24a}{19}{3D plot\relax }{figure.caption.59}{}}
\newlabel{sub@fig:2masserror}{{a}{19}{3D plot\relax }{figure.caption.59}{}}
\newlabel{fig:wfcamerror}{{24b}{19}{Composite plot\relax }{figure.caption.59}{}}
\newlabel{sub@fig:wfcamerror}{{b}{19}{Composite plot\relax }{figure.caption.59}{}}
\@writefile{lof}{\contentsline {figure}{\numberline {24}{\ignorespaces 2MASS colour chart vs WFCAM colour chart\relax }}{19}{figure.caption.59}}
\newlabel{fig:wfcamvs2mass}{{24}{19}{2MASS colour chart vs WFCAM colour chart\relax }{figure.caption.59}{}}
\citation{GortonIR}
\citation{BoyerIR}
\newlabel{fig:3dewha}{{25a}{20}{3D plot\relax }{figure.caption.60}{}}
\newlabel{sub@fig:3dewha}{{a}{20}{3D plot\relax }{figure.caption.60}{}}
\newlabel{fig:compewha}{{25b}{20}{Composite plot\relax }{figure.caption.60}{}}
\newlabel{sub@fig:compewha}{{b}{20}{Composite plot\relax }{figure.caption.60}{}}
\@writefile{lof}{\contentsline {figure}{\numberline {25}{\ignorespaces Colour-colour-H$^\alpha $ 3-D plot and 2D composite plot\relax }}{20}{figure.caption.60}}
\newlabel{fig:colcolcolewha}{{25}{20}{Colour-colour-\halpha 3-D plot and 2D composite plot\relax }{figure.caption.60}{}}
\@writefile{toc}{\contentsline {paragraph}{}{20}{section*.61}}
\newlabel{fig:3dewli}{{26a}{20}{3D plot\relax }{figure.caption.62}{}}
\newlabel{sub@fig:3dewli}{{a}{20}{3D plot\relax }{figure.caption.62}{}}
\newlabel{fig:compewli}{{26b}{20}{Composite plot\relax }{figure.caption.62}{}}
\newlabel{sub@fig:compewli}{{b}{20}{Composite plot\relax }{figure.caption.62}{}}
\@writefile{lof}{\contentsline {figure}{\numberline {26}{\ignorespaces Colour-colour-lithium 3-D plot and 2D composite plot\relax }}{20}{figure.caption.62}}
\newlabel{fig:colcolcolewli}{{26}{20}{Colour-colour-lithium 3-D plot and 2D composite plot\relax }{figure.caption.62}{}}
\@writefile{toc}{\contentsline {section}{\numberline {6}Collection of a Complete Independent Database of NGC 2264}{20}{section.6}}
\@writefile{toc}{\contentsline {paragraph}{}{20}{section*.63}}
\@writefile{toc}{\contentsline {paragraph}{}{20}{section*.64}}
\@writefile{toc}{\contentsline {paragraph}{}{20}{section*.65}}
\@writefile{toc}{\contentsline {paragraph}{}{21}{section*.66}}
\@writefile{toc}{\contentsline {subsection}{\numberline {6.1}Addition of Herschel Data}{21}{subsection.6.1}}
\@writefile{toc}{\contentsline {paragraph}{}{21}{section*.67}}
\@writefile{toc}{\contentsline {paragraph}{}{21}{section*.68}}
\@writefile{lot}{\contentsline {table}{\numberline {5}{\ignorespaces Fitting parameters for mapping RA and DEC to \textit  {xpixel} and \textit  {ypixel}, note that only a first order fit is required\relax }}{21}{table.caption.69}}
\newlabel{tab:fittingparameters}{{5}{21}{Fitting parameters for mapping RA and DEC to \textit {xpixel} and \textit {ypixel}, note that only a first order fit is required\relax }{table.caption.69}{}}
\@writefile{lof}{\contentsline {figure}{\numberline {27}{\ignorespaces Fitting between xpixel and ypixel\relax }}{21}{figure.caption.70}}
\newlabel{fig:xfits}{{27}{21}{Fitting between xpixel and ypixel\relax }{figure.caption.70}{}}
\@writefile{lof}{\contentsline {figure}{\numberline {28}{\ignorespaces Matching of Herschel catalogue with MPCM\relax }}{22}{figure.caption.71}}
\newlabel{fig:less-bad-matching}{{28}{22}{Matching of Herschel catalogue with MPCM\relax }{figure.caption.71}{}}
\@writefile{toc}{\contentsline {paragraph}{}{22}{section*.72}}
\@writefile{toc}{\contentsline {section}{\numberline {7}Subclustering}{22}{section.7}}
\@writefile{toc}{\contentsline {subsection}{\numberline {7.1}Testing Subclustering Algorithms}{22}{subsection.7.1}}
\@writefile{toc}{\contentsline {paragraph}{}{22}{section*.73}}
\@writefile{toc}{\contentsline {paragraph}{}{22}{section*.74}}
\newlabel{fig:test1}{{29a}{23}{Test 1 - Basic\relax }{figure.caption.75}{}}
\newlabel{sub@fig:test1}{{a}{23}{Test 1 - Basic\relax }{figure.caption.75}{}}
\newlabel{fig:test2}{{29b}{23}{Test 2 - Advanced\relax }{figure.caption.75}{}}
\newlabel{sub@fig:test2}{{b}{23}{Test 2 - Advanced\relax }{figure.caption.75}{}}
\@writefile{lof}{\contentsline {figure}{\numberline {29}{\ignorespaces Subclustering test data\relax }}{23}{figure.caption.75}}
\newlabel{fig:tests}{{29}{23}{Subclustering test data\relax }{figure.caption.75}{}}
\@writefile{toc}{\contentsline {paragraph}{}{23}{section*.76}}
\newlabel{fig:contourtest1}{{30a}{23}{Contour plot - Basic\relax }{figure.caption.77}{}}
\newlabel{sub@fig:contourtest1}{{a}{23}{Contour plot - Basic\relax }{figure.caption.77}{}}
\newlabel{fig:contourtest2}{{30b}{23}{Contour plot - Advanced\relax }{figure.caption.77}{}}
\newlabel{sub@fig:contourtest2}{{b}{23}{Contour plot - Advanced\relax }{figure.caption.77}{}}
\@writefile{lof}{\contentsline {figure}{\numberline {30}{\ignorespaces Test data subclustering contour plots\relax }}{23}{figure.caption.77}}
\newlabel{fig:contour test}{{30}{23}{Test data subclustering contour plots\relax }{figure.caption.77}{}}
\newlabel{fig:2stage-allpoints}{{31a}{25}{2 stage subclustering\relax }{figure.caption.78}{}}
\newlabel{sub@fig:2stage-allpoints}{{a}{25}{2 stage subclustering\relax }{figure.caption.78}{}}
\newlabel{fig:3stage-allpoints}{{31b}{25}{3 stage subclustering\relax }{figure.caption.78}{}}
\newlabel{sub@fig:3stage-allpoints}{{b}{25}{3 stage subclustering\relax }{figure.caption.78}{}}
\@writefile{lof}{\contentsline {figure}{\numberline {31}{\ignorespaces Subclustering treating all Herschel points as seeds\relax }}{25}{figure.caption.78}}
\newlabel{fig:allpoints}{{31}{25}{Subclustering treating all Herschel points as seeds\relax }{figure.caption.78}{}}
\newlabel{fig:2stage-centroids}{{32a}{25}{2 stage centroid locations\relax }{figure.caption.79}{}}
\newlabel{sub@fig:2stage-centroids}{{a}{25}{2 stage centroid locations\relax }{figure.caption.79}{}}
\newlabel{fig:3stage-centroids}{{32b}{25}{3 stage centroid locations\relax }{figure.caption.79}{}}
\newlabel{sub@fig:3stage-centroids}{{b}{25}{3 stage centroid locations\relax }{figure.caption.79}{}}
\@writefile{lof}{\contentsline {figure}{\numberline {32}{\ignorespaces Centroid locations treating all Herschel points as seeds\relax }}{25}{figure.caption.79}}
\newlabel{fig:allpoints}{{32}{25}{Centroid locations treating all Herschel points as seeds\relax }{figure.caption.79}{}}
\newlabel{fig:3stage-seeded-1}{{33a}{25}{3 stage seeded subclusters\relax }{figure.caption.80}{}}
\newlabel{sub@fig:3stage-seeded-1}{{a}{25}{3 stage seeded subclusters\relax }{figure.caption.80}{}}
\newlabel{fig:3stage-unseeded-1}{{33b}{25}{3 stage unseeded subclusters\relax }{figure.caption.80}{}}
\newlabel{sub@fig:3stage-unseeded-1}{{b}{25}{3 stage unseeded subclusters\relax }{figure.caption.80}{}}
\@writefile{lof}{\contentsline {figure}{\numberline {33}{\ignorespaces Centroid locations treating all Herschel points as seeds\relax }}{25}{figure.caption.80}}
\newlabel{fig:firstattemptseeding}{{33}{25}{Centroid locations treating all Herschel points as seeds\relax }{figure.caption.80}{}}
\@writefile{lof}{\contentsline {figure}{\numberline {34}{\ignorespaces Fan diagram of cluster contents\relax }}{26}{figure.caption.81}}
\newlabel{fig:FanDiagram}{{34}{26}{Fan diagram of cluster contents\relax }{figure.caption.81}{}}
\@writefile{toc}{\contentsline {paragraph}{}{27}{section*.82}}
\@writefile{toc}{\contentsline {paragraph}{}{27}{section*.83}}
\@writefile{lol}{\contentsline {lstlisting}{../Data/Subclustering/eps\textunderscore calc.py}{27}{lstlisting.-6}}
\@writefile{lot}{\contentsline {table}{\numberline {6}{\ignorespaces Catalogue members and EPS comparisons for MPCM and Herschel point source estimate\relax }}{28}{table.caption.84}}
\newlabel{cat-comparisons-herschel}{{6}{28}{Catalogue members and EPS comparisons for MPCM and Herschel point source estimate\relax }{table.caption.84}{}}
\@writefile{lof}{\contentsline {figure}{\numberline {35}{\ignorespaces Herschel distance matrix sorting\relax }}{28}{figure.caption.85}}
\newlabel{fig:herschel-dmat}{{35}{28}{Herschel distance matrix sorting\relax }{figure.caption.85}{}}
\@writefile{toc}{\contentsline {paragraph}{}{28}{section*.86}}
\@writefile{lof}{\contentsline {figure}{\numberline {36}{\ignorespaces Herschel subclusters\relax }}{29}{figure.caption.87}}
\newlabel{fig:herschel-subcluster-final}{{36}{29}{Herschel subclusters\relax }{figure.caption.87}{}}
\@writefile{lof}{\contentsline {figure}{\numberline {37}{\ignorespaces Subcluster locations overlaid onto Herschel $70\mu m$ data, showing that centroid locations seem to be near dust emission, suggesting that the point source catalogue generated contains false positives\relax }}{30}{figure.caption.88}}
\newlabel{fig:Driftplot}{{37}{30}{Subcluster locations overlaid onto Herschel $70\mu m$ data, showing that centroid locations seem to be near dust emission, suggesting that the point source catalogue generated contains false positives\relax }{figure.caption.88}{}}
\@writefile{toc}{\contentsline {subsection}{\numberline {7.2}Dr. Buckners Catalogue}{30}{subsection.7.2}}
\@writefile{toc}{\contentsline {paragraph}{}{30}{section*.89}}
\@writefile{lof}{\contentsline {figure}{\numberline {38}{\ignorespaces Protostar position catalouge\relax }}{31}{figure.caption.90}}
\newlabel{fig:protostar-positions}{{38}{31}{Protostar position catalouge\relax }{figure.caption.90}{}}
\@writefile{toc}{\contentsline {paragraph}{}{31}{section*.91}}
\@writefile{lof}{\contentsline {figure}{\numberline {39}{\ignorespaces Outputs of contours for each kmeans subcluster\relax }}{32}{figure.caption.92}}
\newlabel{fig:Rplot06}{{39}{32}{Outputs of contours for each kmeans subcluster\relax }{figure.caption.92}{}}
\@writefile{lof}{\contentsline {figure}{\numberline {40}{\ignorespaces Final 4-stage subclustering graph, with Herschel overlay\relax }}{33}{figure.caption.93}}
\newlabel{fig:protostar-subcluster-final}{{40}{33}{Final 4-stage subclustering graph, with Herschel overlay\relax }{figure.caption.93}{}}
\@writefile{lof}{\contentsline {figure}{\numberline {41}{\ignorespaces Protostar centroids, showing significantly reduced drift in comparison to Herschel excess catalogue\relax }}{34}{figure.caption.94}}
\newlabel{fig:protostar-centres-final}{{41}{34}{Protostar centroids, showing significantly reduced drift in comparison to Herschel excess catalogue\relax }{figure.caption.94}{}}
\@writefile{lot}{\contentsline {table}{\numberline {7}{\ignorespaces Catalogue members and EPS comparisons for Buckner catalogue\relax }}{34}{table.caption.95}}
\newlabel{cat-comparisons}{{7}{34}{Catalogue members and EPS comparisons for Buckner catalogue\relax }{table.caption.95}{}}
\@writefile{toc}{\contentsline {paragraph}{}{34}{section*.96}}
\@writefile{toc}{\contentsline {subsubsection}{\numberline {7.2.1}4-Stage Subclustering Script}{34}{subsubsection.7.2.1}}
\newlabel{4sub}{{7.2.1}{34}{4-Stage Subclustering Script}{subsubsection.7.2.1}{}}
\@writefile{toc}{\contentsline {subsubsection}{\numberline {7.2.2}Subclustering Plotting Script}{35}{subsubsection.7.2.2}}
\newlabel{4subplot}{{7.2.2}{35}{Subclustering Plotting Script}{subsubsection.7.2.2}{}}
\@writefile{toc}{\contentsline {paragraph}{}{37}{section*.97}}
\newlabel{fig:2masserror}{{42a}{38}{3D plot\relax }{figure.caption.98}{}}
\newlabel{sub@fig:2masserror}{{a}{38}{3D plot\relax }{figure.caption.98}{}}
\newlabel{fig:wfcamerror}{{42b}{38}{Composite plot\relax }{figure.caption.98}{}}
\newlabel{sub@fig:wfcamerror}{{b}{38}{Composite plot\relax }{figure.caption.98}{}}
\@writefile{lof}{\contentsline {figure}{\numberline {42}{\ignorespaces 2MASS colour chart vs WFCAM colour chart\relax }}{38}{figure.caption.98}}
\newlabel{fig:wfcamvs2mass}{{42}{38}{2MASS colour chart vs WFCAM colour chart\relax }{figure.caption.98}{}}
\@writefile{toc}{\contentsline {subsection}{\numberline {7.3}3-D Subclustering}{38}{subsection.7.3}}
\@writefile{toc}{\contentsline {paragraph}{}{38}{section*.99}}
\@writefile{lof}{\contentsline {figure}{\numberline {43}{\ignorespaces Hyades TGAS dataset before and after scaling\relax }}{39}{figure.caption.100}}
\newlabel{fig:comparison-png}{{43}{39}{Hyades TGAS dataset before and after scaling\relax }{figure.caption.100}{}}
\@writefile{toc}{\contentsline {paragraph}{}{39}{section*.101}}
\@writefile{toc}{\contentsline {paragraph}{}{39}{section*.102}}
\@writefile{toc}{\contentsline {paragraph}{}{39}{section*.103}}
\@writefile{lof}{\contentsline {figure}{\numberline {44}{\ignorespaces Hyades 3-D eps calculation\relax }}{40}{figure.caption.104}}
\newlabel{fig:3d-eps}{{44}{40}{Hyades 3-D eps calculation\relax }{figure.caption.104}{}}
\@writefile{toc}{\contentsline {paragraph}{}{40}{section*.105}}
\@writefile{lof}{\contentsline {figure}{\numberline {45}{\ignorespaces Hyades TGAS scaled vs. dataset with DBSCAN applied\relax }}{40}{figure.caption.106}}
\newlabel{fig:comparison-members-png}{{45}{40}{Hyades TGAS scaled vs. dataset with DBSCAN applied\relax }{figure.caption.106}{}}
\@writefile{toc}{\contentsline {paragraph}{}{40}{section*.107}}
\@writefile{lof}{\contentsline {figure}{\numberline {46}{\ignorespaces Hyades TGAS dataset before and after kmeans is applied\relax }}{41}{figure.caption.108}}
\newlabel{fig:comparison-dbs-kmeans-png}{{46}{41}{Hyades TGAS dataset before and after kmeans is applied\relax }{figure.caption.108}{}}
\@writefile{lof}{\contentsline {figure}{\numberline {47}{\ignorespaces 3D composite plot of TGAS Hyades subclusters\relax }}{42}{figure.caption.109}}
\newlabel{fig:comp}{{47}{42}{3D composite plot of TGAS Hyades subclusters\relax }{figure.caption.109}{}}
\@writefile{lol}{\contentsline {lstlisting}{../Data/Subclustering/3D/universalplotter.py}{42}{lstlisting.-10}}
\bibdata{labbib}
\bibcite{baraffe2015new}{Baraffe et\nobreakspace  {}al., 2015}
\bibcite{bouvier2016gaia}{Bouvier et\nobreakspace  {}al., 2016}
\bibcite{BoyerIR}{Boyer, 2016}
\bibcite{GortonIR}{Gorton, 2015}
\bibcite{lim2016constraint}{Lim et\nobreakspace  {}al., 2016}
\bibcite{marinas2013near}{Mari{\~n}as et\nobreakspace  {}al., 2013}
\bibcite{povich2013mystix}{Povich et\nobreakspace  {}al., 2013}
\bibcite{sergison2013no}{Sergison et\nobreakspace  {}al., 2013}
\bibstyle{plain}
