\relax 
\providecommand\hyper@newdestlabel[2]{}
\providecommand\HyperFirstAtBeginDocument{\AtBeginDocument}
\HyperFirstAtBeginDocument{\ifx\hyper@anchor\@undefined
\global\let\oldcontentsline\contentsline
\gdef\contentsline#1#2#3#4{\oldcontentsline{#1}{#2}{#3}}
\global\let\oldnewlabel\newlabel
\gdef\newlabel#1#2{\newlabelxx{#1}#2}
\gdef\newlabelxx#1#2#3#4#5#6{\oldnewlabel{#1}{{#2}{#3}}}
\AtEndDocument{\ifx\hyper@anchor\@undefined
\let\contentsline\oldcontentsline
\let\newlabel\oldnewlabel
\fi}
\fi}
\global\let\hyper@last\relax 
\gdef\HyperFirstAtBeginDocument#1{#1}
\providecommand\HyField@AuxAddToFields[1]{}
\providecommand\HyField@AuxAddToCoFields[2]{}
\bibstyle{apalike}
\citation{BoyerIR}
\citation{GortonIR}
\citation{zeilikintroductory}
\citation{schmeja2006evolving}
\citation{kuhn2015spatial}
\@writefile{toc}{\contentsline {section}{\numberline {1}Introduction}{1}{section.1}}
\@writefile{toc}{\contentsline {paragraph}{}{1}{section*.2}}
\@writefile{toc}{\contentsline {paragraph}{}{1}{section*.3}}
\@writefile{toc}{\contentsline {section}{\numberline {2}Stellar Clusters}{1}{section.2}}
\@writefile{toc}{\contentsline {paragraph}{}{1}{section*.4}}
\@writefile{toc}{\contentsline {paragraph}{}{1}{section*.5}}
\@writefile{toc}{\contentsline {paragraph}{}{1}{section*.6}}
\citation{povich2013mystix}
\citation{soderblom2014ages}
\citation{clarke2000protostars}
\citation{soderblom2014ages}
\citation{ushomirsky1998light}
\citation{soderblom2014ages}
\citation{povich2013mystix}
\citation{brown1997kinematic}
\@writefile{toc}{\contentsline {subsection}{\numberline {2.1}NGC 2264}{2}{subsection.2.1}}
\@writefile{toc}{\contentsline {paragraph}{}{2}{section*.7}}
\@writefile{toc}{\contentsline {paragraph}{}{2}{section*.8}}
\@writefile{toc}{\contentsline {section}{\numberline {3}Stellar Ageing Techniques}{2}{section.3}}
\@writefile{toc}{\contentsline {paragraph}{}{2}{section*.9}}
\@writefile{toc}{\contentsline {paragraph}{}{2}{section*.10}}
\@writefile{toc}{\contentsline {subsection}{\numberline {3.1}Lithium Depletion Boundary}{2}{subsection.3.1}}
\@writefile{toc}{\contentsline {paragraph}{}{2}{section*.11}}
\@writefile{toc}{\contentsline {paragraph}{}{2}{section*.12}}
\@writefile{toc}{\contentsline {paragraph}{}{2}{section*.13}}
\@writefile{toc}{\contentsline {paragraph}{}{2}{section*.14}}
\@writefile{lof}{\contentsline {figure}{\numberline {1}{\ignorespaces A composite of lithium abundance aged stars, HR aged stars and cluster candidate stars\relax }}{2}{figure.caption.15}}
\providecommand*\caption@xref[2]{\@setref\relax\@undefined{#1}}
\newlabel{lithHR}{{1}{2}{A composite of lithium abundance aged stars, HR aged stars and cluster candidate stars\relax }{figure.caption.15}{}}
\@writefile{toc}{\contentsline {subsection}{\numberline {3.2}Kinematic Ageing}{2}{subsection.3.2}}
\@writefile{toc}{\contentsline {paragraph}{}{2}{section*.16}}
\citation{lim2016constraint}
\citation{lim2016constraint}
\citation{lim2016constraint}
\citation{lim2016constraint}
\citation{marinas2013near}
\citation{dahm2005t}
\citation{marinas2013near}
\citation{marinas2013near}
\citation{clarke2000protostars}
\citation{baraffe1998evolutionary}
\citation{siess2000internet}
\citation{feigelson2013overview}
\citation{povich2013mystix}
\@writefile{toc}{\contentsline {paragraph}{}{3}{section*.17}}
\@writefile{toc}{\contentsline {subsection}{\numberline {3.3}Lithium Abundance}{3}{subsection.3.3}}
\newlabel{lith}{{3.3}{3}{Lithium Abundance}{subsection.3.3}{}}
\@writefile{toc}{\contentsline {paragraph}{}{3}{section*.18}}
\@writefile{toc}{\contentsline {paragraph}{}{3}{section*.19}}
\@writefile{lof}{\contentsline {figure}{\numberline {2}{\ignorespaces A plot of the positions and abundances of a dense region of NGC 2264, from the \cite  {lim2016constraint} dataset.\relax }}{3}{figure.caption.20}}
\newlabel{limsurvey}{{2}{3}{A plot of the positions and abundances of a dense region of NGC 2264, from the \cite {lim2016constraint} dataset.\relax }{figure.caption.20}{}}
\@writefile{toc}{\contentsline {paragraph}{}{3}{section*.21}}
\@writefile{toc}{\contentsline {subsection}{\numberline {3.4}HR Ageing}{3}{subsection.3.4}}
\@writefile{toc}{\contentsline {paragraph}{}{3}{section*.22}}
\@writefile{toc}{\contentsline {paragraph}{}{3}{section*.23}}
\@writefile{toc}{\contentsline {section}{\numberline {4}MYStIX Survey}{3}{section.4}}
\@writefile{toc}{\contentsline {paragraph}{}{3}{section*.24}}
\@writefile{toc}{\contentsline {subsection}{\numberline {4.1}Infrared Excess Data From MIRES}{3}{subsection.4.1}}
\@writefile{toc}{\contentsline {paragraph}{}{3}{section*.25}}
\citation{feigelson2013overview}
\citation{townsley2014massive}
\citation{feigelson2013overview}
\citation{feigelson2013overview}
\citation{townsley2014massive}
\citation{naylor2013bayesian}
\citation{sneath1957application}
\citation{GortonIR}
\citation{ester1996density}
\@writefile{lof}{\contentsline {figure}{\numberline {3}{\ignorespaces A composite of the MIRES, MOXC and MPCM surveys in the region of NGC 2264.\relax }}{4}{figure.caption.26}}
\newlabel{survcomp}{{3}{4}{A composite of the MIRES, MOXC and MPCM surveys in the region of NGC 2264.\relax }{figure.caption.26}{}}
\@writefile{toc}{\contentsline {paragraph}{}{4}{section*.27}}
\@writefile{toc}{\contentsline {paragraph}{}{4}{section*.28}}
\@writefile{lot}{\contentsline {table}{\numberline {1}{\ignorespaces Summary Source Populations for NGC 2264, source \cite  {feigelson2013overview}\relax }}{4}{table.caption.29}}
\newlabel{mpcm}{{1}{4}{Summary Source Populations for NGC 2264, source \cite {feigelson2013overview}\relax }{table.caption.29}{}}
\@writefile{toc}{\contentsline {subsection}{\numberline {4.2}X-Ray Data From MOXC}{4}{subsection.4.2}}
\@writefile{toc}{\contentsline {paragraph}{}{4}{section*.30}}
\@writefile{toc}{\contentsline {paragraph}{}{4}{section*.31}}
\@writefile{toc}{\contentsline {section}{\numberline {5}Clustering Algorithms}{4}{section.5}}
\@writefile{toc}{\contentsline {paragraph}{}{4}{section*.32}}
\@writefile{toc}{\contentsline {paragraph}{}{4}{section*.33}}
\@writefile{toc}{\contentsline {subsection}{\numberline {5.1}Previous Project}{4}{subsection.5.1}}
\@writefile{toc}{\contentsline {paragraph}{}{4}{section*.34}}
\newlabel{link}{{1}{4}{}{equation.5.1}{}}
\@writefile{toc}{\contentsline {paragraph}{}{4}{section*.35}}
\citation{kuhn2014spatial}
\citation{GortonIR}
\citation{BoyerIR}
\citation{GortonIR}
\citation{kuhn2014spatial}
\citation{kuhn2014spatial}
\citation{michalik2015tycho}
\@writefile{toc}{\contentsline {subsection}{\numberline {5.2}Subclustering by MYStIX}{5}{subsection.5.2}}
\@writefile{toc}{\contentsline {paragraph}{}{5}{section*.36}}
\@writefile{toc}{\contentsline {paragraph}{}{5}{section*.37}}
\@writefile{lof}{\contentsline {figure}{\numberline {4}{\ignorespaces Finite mixture subclustering example from the Orion star-forming region, source \cite  {kuhn2014spatial}\relax }}{5}{figure.caption.38}}
\newlabel{finite}{{4}{5}{Finite mixture subclustering example from the Orion star-forming region, source \cite {kuhn2014spatial}\relax }{figure.caption.38}{}}
\@writefile{toc}{\contentsline {section}{\numberline {6}Potential Improvements For Next Years Project - The Gaia Survey}{5}{section.6}}
\newlabel{tgas}{{6}{5}{Potential Improvements For Next Years Project - The Gaia Survey}{section.6}{}}
\@writefile{toc}{\contentsline {paragraph}{}{5}{section*.39}}
\@writefile{lof}{\contentsline {figure}{\numberline {5}{\ignorespaces A 3-D position plot of the Hyades cluster\relax }}{5}{figure.caption.40}}
\newlabel{tgas1}{{5}{5}{A 3-D position plot of the Hyades cluster\relax }{figure.caption.40}{}}
\@writefile{toc}{\contentsline {paragraph}{}{5}{section*.41}}
\citation{lindegren2007gaia}
\citation{GortonIR}
\citation{BoyerIR}
\bibdata{bib}
\bibcite{baraffe1998evolutionary}{Baraffe et\nobreakspace  {}al., 1998}
\bibcite{BoyerIR}{Boyer, 2016}
\bibcite{brown1997kinematic}{Brown et\nobreakspace  {}al., 1997}
\bibcite{clarke2000protostars}{Clarke et\nobreakspace  {}al., 2000}
\bibcite{dahm2005t}{Dahm and Simon, 2005}
\bibcite{ester1996density}{Ester et\nobreakspace  {}al., 1996}
\bibcite{feigelson2013overview}{Feigelson et\nobreakspace  {}al., 2013}
\bibcite{GortonIR}{Gorton, 2015}
\bibcite{kuhn2014spatial}{Kuhn et\nobreakspace  {}al., 2014}
\@writefile{lof}{\contentsline {figure}{\numberline {6}{\ignorespaces A 3-D position plot of the cluster Blanco-1\relax }}{6}{figure.caption.42}}
\newlabel{tgas2}{{6}{6}{A 3-D position plot of the cluster Blanco-1\relax }{figure.caption.42}{}}
\@writefile{toc}{\contentsline {paragraph}{}{6}{section*.43}}
\@writefile{lof}{\contentsline {figure}{\numberline {7}{\ignorespaces Uncertainty propagation due to increasing distance of sources\relax }}{6}{figure.caption.44}}
\newlabel{errorprop}{{7}{6}{Uncertainty propagation due to increasing distance of sources\relax }{figure.caption.44}{}}
\@writefile{toc}{\contentsline {section}{\numberline {7}Discussion \& Conclusion}{6}{section.7}}
\@writefile{toc}{\contentsline {paragraph}{}{6}{section*.45}}
\@writefile{toc}{\contentsline {paragraph}{}{6}{section*.46}}
\bibcite{kuhn2015spatial}{Kuhn et\nobreakspace  {}al., 2015}
\bibcite{lim2016constraint}{Lim et\nobreakspace  {}al., 2016}
\bibcite{lindegren2007gaia}{Lindegren et\nobreakspace  {}al., 2007}
\bibcite{marinas2013near}{Mari{\~n}as et\nobreakspace  {}al., 2013}
\bibcite{michalik2015tycho}{Michalik et\nobreakspace  {}al., 2015}
\bibcite{naylor2013bayesian}{Naylor et\nobreakspace  {}al., 2013}
\bibcite{povich2013mystix}{Povich et\nobreakspace  {}al., 2013}
\bibcite{schmeja2006evolving}{Schmeja and Klessen, 2006}
\bibcite{siess2000internet}{Siess et\nobreakspace  {}al., 2000}
\bibcite{sneath1957application}{Sneath, 1957}
\bibcite{soderblom2014ages}{Soderblom et\nobreakspace  {}al., 2014}
\bibcite{townsley2014massive}{Townsley et\nobreakspace  {}al., 2014}
\bibcite{ushomirsky1998light}{Ushomirsky et\nobreakspace  {}al., 1998}
\bibcite{zeilikintroductory}{Zeilik et\nobreakspace  {}al., }
\bibstyle{plain}
