"","V1","V2"
"1",100.15623386,9.78934622
"2",100.245999732143,9.89005146785714
"3",100.132182427273,9.83071562727273
"4",100.311640068965,9.47757119655173
"5",100.272599055128,9.49360784102564
"6",100.267288119394,9.58599686606061
