"","V1","V2","V3"
"1",100.2747359936,9.454845995,1
"2",100.278458,9.458964,1
"3",100.3029599991,9.4507250095,1
"4",100.303596,9.437476,1
"5",100.30469,9.435935,1
"6",100.305037,9.436254,1
"7",100.308882,9.444623,1
"8",100.310076,9.449578,1
"9",100.3119799893,9.4371110048,1
"10",100.3119920166,9.432002088,1
"11",100.3129699921,9.4456479953,1
"12",100.3140601333,9.4760141767,1
"13",100.3144672398,9.4730414285,1
"14",100.314572,9.442481,1
"15",100.314923,9.446027,1
"16",100.315183,9.442643,1
"17",100.315631,9.438055,1
"18",100.3166350123,9.4359670158,1
"19",100.3171099844,9.4454529846,1
"20",100.3174440165,9.4529640046,1
"21",100.3187700103,9.4356469996,1
