100.0437678,9.8758202
100.051765,9.948436
100.0539459,9.8153195
100.0556754,9.8222645
100.057138,9.9417863
100.0585774,9.883069
100.063193,9.819053
100.067156,9.9020051
100.07083,9.775919
100.07507,9.839478
100.076301,9.935239
100.07696,9.868364
100.0770437,9.7385223
100.077515,9.900858
100.0778973,9.8783419
100.0796183,9.8614503
100.0800569,9.759767
100.080455,9.808332
100.0841489,9.7757485
100.084479,9.935099
100.08596,9.680542
100.086732,9.842823
100.0903446,9.8062319
100.09078,9.86925
100.0922006,9.6735351
100.092581,9.908018
100.09427,9.829522
100.09565,9.886817
100.0962493,9.4617538
100.09639,9.938857
100.096551,9.460433
100.09759,9.915439
100.0978989,9.9416917
100.098889,9.923296
100.1005286,9.6769438
100.1007946,9.7395036
100.10086,9.766783
100.1032135,9.7688726
100.10351,9.886533
100.10614,9.807231
100.10632,9.908986
100.1063565,9.785867
100.1067,9.543264
100.1073,9.489803
100.107616,9.774193
100.107908,9.8492749
100.1100265,9.9496685
100.1105,9.589447
100.11436,9.875106
100.114944,9.847689
100.1155,9.53323
100.116974,9.592705
100.1180296,9.8081218
100.1189584,9.8413403
100.119109,9.596568
100.11977,9.516547
100.12008,9.806756
100.1200855,9.5171521
100.120255,9.551537
100.12048,9.8973712
100.120614,9.704762
100.1217409,9.9217911
100.12183,9.735419
100.1218529,9.8325256
100.12227,9.755295
100.12255,9.7936
100.1241103,9.7058615
100.12426,9.854383
100.1244157,9.8454049
100.124545,9.836231
100.12457,9.838794
100.125328,9.8271278
100.12747,9.644344
100.127495,9.837488
100.127557,9.772229
100.127581,9.769625
100.128204,9.802139
100.128584,9.577939
100.12902,9.853172
100.1295002,9.5943829
100.1295209,9.5794836
100.1296,9.82555
100.13013,9.518639
100.131844,9.806494
100.131966,9.830097
100.13198,9.833147
100.13199,9.8918
100.1325,9.558114
100.132632,9.600175
100.1334677,9.8264832
100.13414,9.956163
100.1356271,9.6709991
100.13579,9.8259
100.136663,9.858138
100.137236,9.8289066
100.13799,9.831869
100.138609,9.8350723
100.139595,9.582942
100.139666,9.7152535
100.139854,9.560092
100.14058,9.540278
100.140772,9.812194
100.1423545,9.420197
100.1424937,9.7312562
100.142914,9.647719
100.1429882,9.9396818
100.1430532,9.4213938
100.14361,9.588406
100.1439803,9.8887797
100.14511,9.762586
100.14537,9.901994
100.1457772,9.5540336
100.146604,9.865759
100.14794,9.707813
100.150345,9.793398
100.1504097,9.8264613
100.1509,9.46785
100.15092,9.667114
100.1512167,9.7193694
100.1515218,9.9075232
100.152168,9.846009
100.152636,9.806385
100.152745,9.867564
100.152874,9.78957
100.15405,9.652724
100.154272,9.791259
100.1543962,9.7933501
100.1544667,9.8732346
100.15478,9.7871475
100.15501,9.5194025
100.15505,9.886197
100.1550865,9.47974
100.155229,9.791598
100.156038,9.922652
100.15606,9.790222
100.156183,9.916101
100.157005,9.66105
100.157715,9.599105
100.15773,9.830819
100.15775,9.58175
100.15864,9.848416
100.158775,9.85994
100.159145,9.923174
100.159164,9.497914
100.159485,9.787769
100.1597225,9.4904258
100.159828,9.787788
100.160095,9.962638
100.161156,9.576189
100.16116,9.615817
100.162438,9.616628
100.162573,9.599976
100.162985,9.849616
100.163088,9.5543079
100.1631491,9.590853
100.16323,9.816809
100.16353,9.818967
100.163933,9.579324
100.1640231,9.8017372
100.16454,9.810997
100.1650694,9.7813606
100.1655821,9.9319998
100.1658794,9.5279144
100.166878,9.584181
100.167949,9.847415
100.168238,9.850691
100.16847,9.526322
100.168479,9.850687
100.168501,9.847341
100.16878,9.584864
100.16883,9.583644
100.1689482,9.4888191
100.16993,9.574128
100.17051,9.466541
100.1709448,9.46509
100.1709575,9.7451229
100.17139,9.882372
100.17142,9.566061
100.17163,9.524613
100.171773,9.617326
100.17198,9.829531
100.172159,9.850664
100.172317,9.903852
100.17261,9.802703
100.17268,9.525444
100.173515,9.528652
100.174123,9.831198
100.174267,9.862887
100.17434,9.694058
100.174356,9.862365
100.174781,9.7319819
100.17557,9.528302
100.175575,9.913363
100.175756,9.560451
100.175884,9.669746
100.17599,9.814331
100.1761,9.768867
100.176189,9.655906
100.176353,9.573657
100.176857,9.539058
100.17692,9.921473
100.177574,9.896578
100.17825,9.55972
100.17844,9.651613
100.179667,9.765391
100.180038,9.785368
100.180091,9.767149
100.180175,9.520799
100.1801888,9.729023
100.180623,9.84987
100.18085,9.509508
100.180954,9.478042
100.1816,9.622355
100.18184,9.586497
100.18187,9.643233
100.18247,9.813217
100.18272,9.798873
100.182738,9.808522
100.18279,9.481997
100.183646,9.522551
100.183857,9.398712
100.184197,9.8332
100.18434,9.894269
100.185731,9.803493
100.18577,9.462211
100.185805,9.540635
100.18585,9.753722
100.1860448,9.8005664
100.186662,9.829967
100.18688,9.962293
100.18717,9.819257
100.187225,9.647144
100.187673,9.761635
100.18779,9.857684
100.18809,9.798414
100.188183,9.479007
100.1887066,9.5958291
100.189424,9.377879
100.1904387,9.8008908
100.191154,9.64566
100.191985,9.821497
100.192085,9.797287
100.192526,9.719042
100.1926754,9.8611294
100.19394,9.564523
100.193985,9.3613615
100.194692,9.906855
100.195279,9.541939
100.195366,9.965567
100.19565,9.813353
100.19565,9.877919
100.196295,9.544499
100.19631,9.505461
100.19634,9.702136
100.196643,9.885935
100.19673,9.518919
100.19705,9.790995
100.1971433,9.4580042
100.197306,9.813748
100.197923,9.824736
100.197982,9.823943
100.198166,9.675845
100.198264,9.611498
100.1987373,9.955052
100.1988,9.702986
100.199693,9.550867
100.19994,9.534356
100.2002875,9.5604139
100.20034,9.568167
100.200372,9.594111
100.200399,9.8943
100.2007396,9.9865808
100.20079,9.450231
100.201121,9.610733
100.201523,9.403459
100.201581,9.810712
100.20223,9.571317
100.202586,9.599303
100.202604,9.547909
100.203142,9.545173
100.203215,9.365713
100.203505,9.723801
100.2037554,9.8623519
100.20412,9.423272
100.2047,9.626757
100.2049384,9.620662
100.20504,9.960758
100.205117,9.7444001
100.205284,9.911961
100.20549,9.980955
100.2057244,9.8816112
100.2066234,9.6444657
100.20667,9.871484
100.20706,9.531828
100.207247,9.88296
100.20759,9.791938
100.207872,9.613713
100.20837,9.7484865
100.20862,9.785126
100.208671,9.874299
100.208739,9.511106
100.2089,9.951111
100.208976,9.728886
100.20912,9.563586
100.2096243,9.5816032
100.2100174,9.5933059
100.210434,9.762619
100.210778,9.915943
100.211006,9.525416
100.211336,9.469408
100.211586,9.698703
100.2117729,9.8826814
100.211934,9.931443
100.21195,9.877726
100.21267,9.818361
100.2128476,9.589425
100.213104,9.843869
100.21329,9.746153
100.213761,9.891335
100.21377,9.610836
100.213968,9.490315
100.21402,9.503708
100.21413,9.766053
100.214143,9.890099
100.214411,9.620668
100.214516,9.8654785
100.214756,9.7234
100.214959,9.479033
100.2150961,9.4494821
100.2160764,9.602754
100.216724,9.751344
100.2169684,9.5728628
100.216999,9.870507
100.217081,9.487188
100.217112,9.870702
100.217476,9.945358
100.217506,9.875322
100.217855,9.778883
100.2181068,9.5827184
100.2183293,9.5753942
100.218478,9.494618
100.218911,9.849604
100.218936,9.868367
100.219486,9.739172
100.2197,9.478819
100.21982,9.716783
100.220163,9.624398
100.22033,9.8159
100.220506,9.748447
100.22062,9.440475
100.220627,9.587624
100.220916,9.883214
100.22135,9.5029
100.22172,9.498367
100.221829,9.681206
100.222452,9.625785
100.2224761,9.5062583
100.223426,9.784531
100.22344,9.612792
100.223492,9.556884
100.22351,9.4981202
100.22363,9.966691
100.224016,9.510817
100.22479,9.849461
100.2247933,9.6756565
100.225383,9.5868288
100.225438,9.497536
100.225555,9.812067
100.2255993,9.8734417
100.22581,9.931111
100.2258532,9.6127918
100.226094,9.822323
100.2267054,9.5663787
100.2275621,9.6012549
100.2278229,9.5704943
100.22858,9.889097
100.22868,9.886761
100.228729,9.58988
100.229329,9.622762
100.229794,9.555198
100.229919,9.847165
100.230284,9.5569
100.23047,9.50217
100.230484,9.666413
100.23054,9.871142
100.230926,9.623219
100.231224,9.522572
100.23141,9.644295
100.23168,9.640239
100.2317484,9.8100352
100.231766,9.870142
100.232159,9.853863
100.232216,9.952133
100.2323218,9.7793018
100.232429,9.671764
100.232445,9.60167
100.232517,9.50247
100.232794,9.858473
100.232799,9.621593
100.232943,9.89816
100.2334444,9.575834
100.233449,9.737379
100.233507,9.713769
100.233717,9.504851
100.234048,9.608591
100.234184,9.539722
100.23434,9.659083
100.23438,9.677195
100.23461,9.571681
100.234982,9.598143
100.23535,9.498289
100.235429,9.902915
100.235511,9.401996
100.2361091,9.5007818
100.23636,9.629913
100.2365294,9.6361686
100.236547,9.504161
100.23657,9.499895
100.236646,9.901301
100.236657,9.630308
100.236725,9.812192
100.236824,9.865711
100.237283,9.811309
100.23745,9.905569
100.23747,9.550377
100.238298,9.973887
100.2391488,9.6078385
100.23935,9.438059
100.239396,9.489835
100.23946,9.915927
100.23957,9.822447
100.23991,9.9702
100.240036,9.618748
100.240255,9.530597
100.240309,9.60225
100.240674,9.514013
100.240964,9.94164
100.240996,9.688943
100.241018,9.852487
100.241152,9.50411
100.241554,9.610939
100.241684,9.604051
100.241703,9.899803
100.24182,9.895515
100.242053,9.853796
100.242079,9.614832
100.24225,9.876503
100.24247,9.929048
100.2426788,9.8752587
100.24305,9.632431
100.24332,9.456969
100.243454,9.629014
100.24347,9.581247
100.243546,9.702339
100.243793,9.558818
100.24396,9.8950556
100.244225,9.610923
100.244286,9.765159
100.244421,9.895776
100.244432,9.603659
100.244484,9.881519
100.24457,9.904497
100.24467,9.393395
100.24492,9.89813
100.244954,9.896152
100.245082,9.515878
100.245107,9.655235
100.245255,9.906011
100.245263,9.612838
100.245267,9.516019
100.245274,9.900527
100.24528,9.7071085
100.245495,9.481337
100.245579,9.900238
100.2456319,9.6002909
100.2456344,9.7042637
100.24599,9.818395
100.24604,9.5561695
100.24604,9.550503
100.2464321,9.8647229
100.2464403,9.6040813
100.246499,9.885402
100.24662,9.904027
100.24673,9.901278
100.246747,9.885548
100.24679,9.530633
100.246949,9.556957
100.247083,9.597866
100.247171,9.771273
100.2471829,9.5661292
100.247226,9.599154
100.247304,9.922315
100.247345,9.559268
100.24749,9.516556
100.2476689,9.4648674
100.2476825,9.7643479
100.2477652,9.9959453
100.247894,9.497689
100.248004,9.6029
100.24809,9.651761
100.248101,9.586366
100.24813,9.597606
100.248196,9.54328
100.248299,9.886017
100.24843,9.615981
100.248675,9.478834
100.2486935,9.8179523
100.2488812,9.5728302
100.248941,9.901754
100.24897,9.5997715
100.249281,9.863602
100.2492885,9.6092746
100.249435,9.825803
100.249435,9.825803
100.24956,9.860617
100.249596,9.78459
100.249717,9.597809
100.2497547,9.6054667
100.2499,9.583577
100.249972,9.48062
100.250133,9.871637
100.25089,9.651947
100.251015,9.608642
100.251048,9.870832
100.251055,9.980456
100.2511865,9.4760852
100.2512,9.599708
100.2513288,9.5733839
100.25145,9.898119
100.25165,9.687586
100.2517424,9.9027406
100.251818,9.900984
100.252089,9.750878
100.252133,9.487801
100.252256,9.603395
100.252678,9.6028
100.252728,9.856505
100.252838,9.403265
100.25322,9.856222
100.253365,9.868751
100.25339,9.503962
100.2534269,9.6047415
100.253892,9.54553
100.254094,9.545711
100.25462,9.581195
100.255082,9.540901
100.255089,9.602603
100.255554,9.581292
100.2558146,9.4615219
100.255899,9.568949
100.256515,9.47036
100.256546,9.478106
100.2566186,9.5757917
100.2567754,9.6245885
100.256971,9.806259
100.256993,9.805496
100.2571004,9.9843776
100.257189,9.805948
100.257207,9.930948
100.2572276,9.7119367
100.257239,9.55007
100.257436,9.5778567
100.257566,9.644687
100.25761,9.576159
100.257836,9.879999
100.25794,9.877586
100.258042,9.801184
100.258095,9.834374
100.258254,9.57517
100.25839,9.642591
100.258404,9.488912
100.258593,9.880819
100.258992,9.624667
100.2590608,9.6642841
100.25917,9.864459
100.259561,9.456659
100.2598,9.355108
100.2601883,9.4276534
100.260214,9.873611
100.26055,9.879839
100.260585,9.582171
100.260765,9.604288
100.260767,9.586971
100.26079,9.611151
100.26087,9.850706
100.26087,9.586791
100.2612553,9.6792327
100.26129,9.388553
100.26161,9.387549
100.261662,9.604469
100.2617014,9.5689397
100.261734,9.592864
100.26182,9.922825
100.26193,9.897978
100.26199,9.605962
100.262022,9.456525
100.2621,9.893336
100.262331,9.798422
100.262657,9.626603
100.26281,9.557664
100.2628166,9.4802779
100.26285,9.484603
100.263064,9.595824
100.263259,9.434188
100.263345,9.595859
100.263346,9.548631
100.263667,9.965272
100.26372,9.591001
100.264062,9.601323
100.264097,9.67912
100.264199,9.478201
100.264236,9.501442
100.264381,9.536625
100.264572,9.521802
100.26475,9.455789
100.265002,9.508102
100.265078,9.601246
100.265127,9.5813673
100.26517,9.5955
100.26538,9.472358
100.2654166,9.5879503
100.265436,9.5439829
100.26546,9.472041
100.2655,9.456792
100.2655192,9.4573704
100.265602,9.461083
100.2656644,9.6002858
100.265812,9.581711
100.266395,9.619747
100.266403,9.969294
100.2665625,9.587216
100.266694,9.473446
100.2667,9.59398
100.266806,9.819137
100.266909,9.563534
100.266921,9.589194
100.267384,9.582543
100.267414,9.867205
100.267456,9.615419
100.26748,9.477936
100.267519,9.7763674
100.2676186,9.5603309
100.2676608,9.558892
100.2676624,9.5565676
100.2677879,9.5832195
100.267888,9.414489
100.26789,9.592578
100.267973,9.596577
100.2679806,9.6004133
100.268057,9.806132
100.268078,9.582336
100.268134,9.570042
100.2681494,9.5668227
100.26818,9.458528
100.26822,9.549287
100.2682592,9.5993524
100.268313,9.856895
100.26836,9.863916
100.26849,9.612034
100.268521,9.857248
100.268547,9.605578
100.26863,9.888402
100.2686514,9.5621792
100.2687,9.870167
100.2687493,9.605857
100.26877,9.503764
100.268931,9.435926
100.268955,9.520614
100.268981,9.421761
100.26903,9.641894
100.26903,9.912191
100.269234,9.605035
100.26958,9.418734
100.269625,9.607428
100.269828,9.607264
100.2700055,9.9061643
100.270096,9.873703
100.2701452,9.7425628
100.2701948,9.6029267
100.270524,9.459212
100.27071,9.846135
100.270819,9.9287894
100.271063,9.550108
100.27111,9.822997
100.271169,9.790508
100.271177,9.867737
100.27122,9.862414
100.27124,9.813321
100.271355,9.896703
100.2713892,9.9794452
100.27139,9.815419
100.271478,9.605567
100.271612,9.41577
100.271619,9.608759
100.271695,9.5694933
100.27172,9.887719
100.27174,9.610114
100.2718103,9.5932528
100.2718844,9.6053093
100.272328,9.553522
100.272337,9.553767
100.272409,9.608525
100.27241,9.569301
100.2724344,9.5703505
100.2724713,9.4813468
100.2729418,9.9481562
100.273026,9.583735
100.2730736,9.5699327
100.273078,9.917105
100.273111,9.527948
100.273348,9.595685
100.2734,9.565278
100.27345,9.578733
100.273684,9.905202
100.27384,9.818642
100.2738464,9.5684479
100.273931,9.517041
100.273979,9.608874
100.2740002,9.5502162
100.2740452,9.5632916
100.274073,9.804857
100.274073,9.591528
100.274093,9.580149
100.274121,9.591866
100.274158,9.518734
100.274215,9.879963
100.274492,9.579445
100.2745798,9.3820864
100.274608,9.57925
100.2746405,9.5958532
100.2747209,9.5680817
100.274736,9.454846
100.2747667,9.5841565
100.27487,9.597544
100.274892,9.527749
100.2749063,9.5698717
100.2749224,9.653899
100.27521,9.823075
100.275244,9.579504
100.275288,9.579289
100.275415,9.522214
100.275817,9.606373
100.2758292,9.5690805
100.275955,9.417688
100.275956,9.55249
100.276119,9.494572
100.276329,9.49192
100.276329,9.563897
100.27657,9.618973
100.27673,9.902946
100.276786,9.477493
100.276795,9.449632
100.27682,9.5694275
100.276942,9.601488
100.27695,9.643659
100.2770241,9.5620359
100.2771,9.895919
100.2772496,9.5013123
100.2774008,9.5185193
100.277485,9.595879
100.27771,9.566014
100.2777867,9.572419
100.2779467,9.558358
100.277989,9.56508
100.27803,9.791003
100.278051,9.579439
100.2782333,9.5597028
100.278458,9.458964
100.2785427,9.6105205
100.278691,9.389271
100.278763,9.490022
100.2789958,9.681775
100.27903,9.598836
100.279382,9.510532
100.2795476,9.6400197
100.2796034,9.510367
100.279619,9.463266
100.27964,9.463505
100.279663,9.9354255
100.279699,9.458028
100.27979,9.431853
100.279822,9.46337
100.27984,9.510122
100.279945,9.573395
100.280045,9.707106
100.280237,9.544393
100.280268,9.975323
100.280365,9.832377
100.280391,9.521705
100.280529,9.825753
100.280574,9.431925
100.2806165,9.4806739
100.280815,9.58192
100.2808292,9.5890441
100.280863,9.431761
100.280875,9.519718
100.281,9.575989
100.2811067,9.5070841
100.281166,9.560259
100.2812337,9.6029412
100.2814788,9.5001058
100.2815936,9.6926658
100.28166,9.500154
100.2817124,9.5081321
100.281915,9.572006
100.2822089,9.6906296
100.28226,9.487125
100.282346,9.687484
100.282351,9.470428
100.282367,9.43996
100.2824,9.734176
100.2824281,9.5905496
100.2831249,9.6186911
100.28326,9.579689
100.28338,9.511204
100.283725,9.439617
100.2840265,9.471931
100.284035,9.904352
100.284064,9.50218
100.284132,9.615569
100.2841484,9.501064
100.284192,9.641773
100.284226,9.569301
100.28446,9.506345
100.284635,9.494317
100.2849,9.676711
100.285126,9.492847
100.28516,9.631245
100.2853846,9.4790664
100.285586,9.570348
100.28567,9.714322
100.2857,9.518294
100.28579,9.501034
100.285812,9.492709
100.2860621,9.6009139
100.2861679,9.9327938
100.286818,9.395295
100.286896,9.883631
100.286936,9.766958
100.2870435,9.6318609
100.287156,9.687442
100.2871729,9.4958215
100.28734,9.562783
100.2875515,9.5190968
100.287602,9.4070937
100.287663,9.485324
100.287865,9.502522
100.28833,9.883725
100.2886,9.465795
100.2887504,9.5752041
100.2887599,9.5071164
100.288927,9.935594
100.2890125,9.8970167
100.2895018,9.5692267
100.289528,9.863905
100.289643,9.590414
100.289694,9.49361
100.289743,9.490377
100.289951,9.530028
100.289995,9.465969
100.29009,9.608072
100.2901755,9.4292799
100.29026,9.805703
100.2902625,9.4777194
100.29031,9.415208
100.290693,9.430229
100.2907232,9.560769
100.290874,9.487489
100.290959,9.453414
100.291266,9.5587186
100.2913063,9.5946489
100.291311,9.505605
100.291402,9.462696
100.2914242,9.5749509
100.291678,9.462799
100.291761,9.495816
100.291773,9.462609
100.2919365,9.590722
100.291992,9.491302
100.292129,9.493369
100.292236,9.524653
100.292326,9.492753
100.2924,9.491698
100.292425,9.508634
100.292838,9.866882
100.292842,9.556995
100.2929,9.572756
100.2929345,9.5688072
100.292973,9.36376
100.293076,9.475974
100.29328,9.883814
100.2933296,9.6046697
100.29345,9.571895
100.2941004,9.59066
100.2946,9.961805
100.29496,9.778128
100.29523,9.888375
100.2955192,9.6117867
100.29554,9.568964
100.2956162,9.9331203
100.29569,9.433128
100.295812,9.598785
100.29608,9.7023
100.2961,9.570097
100.296497,9.6115288
100.2970998,9.4164752
100.29718,9.514113
100.297392,9.490281
100.2980408,9.5281126
100.2983708,9.4861583
100.2984987,9.6118226
100.2986822,9.6204069
100.299021,9.853925
100.29916,9.520075
100.29926,9.392384
100.2993,9.592067
100.299366,9.507463
100.2993728,9.5873409
100.2994,9.442111
100.2995714,9.5287413
100.2995785,9.5534337
100.29959,9.628853
100.2997801,9.9947854
100.2999022,9.4986255
100.3000399,9.4858113
100.3005737,9.4977074
100.300603,9.497885
100.3009,9.487414
100.3011066,9.6699859
100.3012854,9.3733916
100.301433,9.670425
100.30177,9.916715
100.30196,9.486103
100.30204,9.7723465
100.302124,9.585758
100.302407,9.87533
100.3026737,9.4845385
100.302704,9.629588
100.30296,9.450725
100.30318,9.541112
100.30343,9.878714
100.303479,9.4861
100.30348,9.487606
100.303596,9.437476
100.303696,9.7668915
100.3038935,9.4897501
100.30397,9.597256
100.303985,9.5923
100.30409,9.460742
100.304229,9.460981
100.304236,9.485702
100.304313,9.458614
100.304326,9.458895
100.30444,9.384547
100.304633,9.51858
100.30468,9.410167
100.30469,9.435935
100.3047222,9.4832952
100.304763,9.483132
100.305037,9.436254
100.3050792,9.9190639
100.305328,9.833613
100.305371,9.530666
100.30545,9.865111
100.305477,9.503336
100.305505,9.53078
100.305529,9.46877
100.305643,9.543944
100.305698,9.637161
100.3058241,9.4911429
100.305895,9.460058
100.3059178,9.506579
100.3059222,9.5591599
100.3063442,9.4777248
100.3069363,9.927003
100.307532,9.928872
100.307638,9.492435
100.3081836,9.4782852
100.3083733,9.5690377
100.3087962,9.6045649
100.308882,9.444623
100.3088969,9.8991331
100.3091308,9.5932103
100.3093148,9.4903038
100.30936,9.5559225
100.3095353,9.4119543
100.3097295,9.9011933
100.310076,9.449578
100.3102206,9.5891229
100.310237,9.55598
100.310312,9.620662
100.3105133,9.4142355
100.3114085,9.3571074
100.311516,9.57047
100.311769,9.689758
100.311814,9.543344
100.3118452,9.7796626
100.31198,9.437111
100.3119905,9.4788531
100.311992,9.4320021
100.312177,9.959454
100.3124771,9.4852772
100.3128169,9.6631049
100.3128803,9.7052427
100.31297,9.445648
100.31307,9.504725
100.313299,9.4982849
100.31336,9.632675
100.313675,9.52125
100.3137525,9.5228212
100.31406,9.421326
100.3140601,9.4760142
100.3141238,9.495692
100.314274,9.777673
100.3144672,9.4730414
100.314572,9.442481
100.314923,9.446027
100.315183,9.442643
100.315486,9.638403
100.315519,9.464652
100.315631,9.438055
100.316185,9.510381
100.316356,9.538526
100.316635,9.435967
100.31711,9.445453
100.31711,9.537595
100.317346,9.603589
100.317444,9.452964
100.318425,9.8804583
100.31877,9.435647
100.319387,9.549541
100.319519,9.497863
100.319924,9.45843
100.3200223,9.5062367
100.320194,9.605755
100.32107,9.54787
100.32126,9.877914
100.32147,9.89435
100.32148,9.503463
100.32149,9.790797
100.3215142,9.4847069
100.321887,9.908993
100.32233,9.757772
100.32235,9.531163
100.3224358,9.9142155
100.32253,9.620912
100.32267,9.507986
100.3229973,9.4684293
100.3231588,9.4703531
100.3234905,9.49968
100.323785,9.490621
100.324673,9.48364
100.324685,9.560306
100.3250583,9.5019674
100.325071,9.641225
100.32535,9.640394
100.3257631,9.3530538
100.325801,9.467567
100.326141,9.564896
100.326196,9.47589
100.326272,9.492359
100.3263,9.735223
100.32656,9.661444
100.326596,9.524913
100.32844,9.505545
100.328765,9.454131
100.328913,9.454415
100.32965,9.441525
100.32967,9.598172
100.3297451,9.5602963
100.33023,9.513539
100.330345,9.635323
100.3308401,9.3629823
100.331059,9.507957
100.331807,9.529026
100.332028,9.463019
100.33218,9.527472
100.332222,9.529127
100.3324292,9.4849295
100.332732,9.45143
100.3337104,9.4763114
100.333855,9.593306
100.334236,9.818997
100.335466,9.603688
100.33558,9.791687
100.335598,9.759876
100.33629,9.479278
100.336418,9.503334
100.33692,9.579114
100.337184,9.482827
100.33746,9.371552
100.337582,9.560053
100.337643,9.544925
100.338274,9.537422
100.340804,9.758604
100.341918,9.730997
100.342288,9.358635
100.343908,9.486921
100.343913,9.532214
100.343953,9.559004
100.345026,9.494165
100.34573,9.49188
100.345986,9.457452
100.34643,9.626095
100.346535,9.589636
100.346682,9.510097
100.3471217,9.5417052
100.34723,9.634575
100.347708,9.587235
100.34776,9.766283
100.34844,9.563826
100.348495,9.787895
100.34911,9.565701
100.3501583,9.78353
100.3502234,9.4479175
100.351053,9.531721
100.351904,9.545905
100.35227,9.626545
100.352395,9.577752
100.353049,9.439829
100.35452,9.600048
100.355658,9.555248
100.3563135,9.438903
100.356758,9.578607
100.35678,9.734253
100.361447,9.399302
100.36246,9.644773
100.362488,9.503661
100.362862,9.469855
100.363174,9.585075
100.363757,9.535114
100.364334,9.538089
100.36704,9.5471945
100.36748,9.54814
100.3678232,9.5745831
100.36976,9.453011
100.369926,9.644123
100.370224,9.581686
100.3711125,9.6637361
100.371609,9.659992
100.3720917,9.6022466
100.372696,9.655052
100.3793208,9.5903417
100.379665,9.449511
100.37975,9.451756
100.38202,9.531744
100.38322,9.613011
100.38379,9.4679575
100.384877,9.455774
100.38543,9.6354
100.39309,9.431522
100.3935841,9.3877816
100.3936163,9.3815195
100.3936951,9.4664449
100.39399,9.609025
100.40099,9.655694
100.40105,9.3793361
100.403154,9.493614
100.404367,9.426595
100.4101213,9.4892197
100.411538,9.536611
100.41258,9.554525
100.4141,9.5436945
100.41504,9.555528
100.415153,9.677253
100.415624,9.674427
100.4170046,9.5944782
100.417463,9.511069
100.4177083,9.5517905
100.42438,9.550628
100.42864,9.4190035
100.42884,9.391078
100.434277,9.41734
