X_IMAGE,Y_IMAGE
848.9869,457.0184
757.0012,489.5211
477.2924,524.8635
644.6407,545.0427
864.004,587.0195
478.6114,644.7357
763.5406,688.5139
510.5194,732.689
492.1144,767.0114
781.7335,880.9859
790.6559,889.3056
488.0465,899.245
772.9816,938.9241
784.8608,927.5047
717.2347,939.244
723.3529,940.9255
712.7285,942.8133
725.326,962.0064
768.9637,947.2179
755.3336,952.0202
747.3561,951.3015
764.6616,957.0297
763.2068,986.205
792.2039,968.9828
660.6868,975.6866
739.8465,988.4794
772.0872,1000.6779
758.4059,996.2421
777.1971,1003.6497
772.5922,1092.9426
777.7796,997.0084
753.652,1003.7658
763.278,999.3909
757.2336,1025.5516
769.5958,1019.6761
750.0064,1006.5012
767.8867,1008.0753
765.1132,1027.0443
702.0117,1013.1707
727.6719,1013.6093
761.9913,1034.3232
761.2976,1084.1648
961.485,1029.5361
675.0602,1043.8977
760.7856,1046.0211
789.7036,1044.9576
751.4409,1048.8665
943.468,1518.7909
961,1512.0134
961.269,1507.627
902.1667,1520.068
839.7711,1512.3141
941.7008,1508.7288
932.573,1506.9956
919.0988,1507.7997
870.6976,1508.0306
904.6609,1509.2969
967.0528,1503.1826
872.3304,1499.3392
905.9265,1495.3774
909.7513,1519.3275
886.5843,1494.2195
931.9901,1492.493
912.5303,1490.0344
985.0166,1488
990.925,1488.6023
843.7173,1482.1729
834.873,1472.1658
958.2429,1469.5613
846.3909,1466.9637
922.8625,1468.0691
985.3239,1466.3248
874.8743,1457.2316
894.4739,1386.5184
888.1771,1379.853
886.3851,1367.6853
882.0153,1439.2695
914.9018,1408.5657
891.6985,1400.8485
920.6621,1388.2206
866.2287,1423.8624
908.8996,1401.9708
872,1443.4791
872.1739,1432.7931
901.3146,1410.3505
903.2075,1416.1791
903.6254,1390.3458
886.3237,1424.7916
898.2419,1404.1411
852.7912,1456.8365
827.566,1458.1451
899.006,1450.6173
907.8171,1447.4364
915.5164,1443.9899
1004.496,1454.4868
859.9367,1444.3905
862.7481,1437.8154
891.1053,1439.6227
894.0003,1416.0125
908.5575,1435.0326
919.6367,1424.6393
921.627,1431.9431
931.0289,1426.0646
924.992,1427
899.6347,1430.5437
982.4941,1431.5039
884.2441,1415.2349
859.7894,1413.0292
938.763,1415.6427
878.816,1404.8033
857.7808,1405.6953
823.2242,1406.41
934.4426,1403.5272
956.5168,1398.9434
943.4739,1393.7445
849.5901,1400.2032
928.7842,1395.2716
869.5033,1388.0157
952.2682,1382.4016
860.5423,1378.2484
912.9193,1377.532
1032.4966,1353.4974
1091.0066,1345.457
1031.4844,1337.5107
867.0167,1324.9557
884.9985,1301.6699
636.2985,1297.6794
815.5885,1241.5051
824.5111,1211.2372
821.5784,1218.84
804.7739,1225.0104
798.7202,1220.2615
808.0179,1217.3524
1201.2444,1226.0251
829.0674,1226.1151
960.1794,1219.3715
921.3677,1216.1986
871.9462,1213.0846
789.7618,1212.1561
792.2711,1205.29
930.3419,1209.8524
1218.0227,1208.3138
779.7155,1208.3376
773.8948,1207.7443
764.8956,1205.1635
1214.1493,1201.9608
939.2764,1208.4275
860.9453,1201.9609
802.1387,1200.1141
799.7661,1194.9213
851.9905,1199.9738
898.0844,1197.6678
854.8647,1194.1711
864.4166,1193.1851
788.3432,1190.9227
892.1459,1183.0465
914.1285,1189.9783
901.725,1187.7556
810.9667,1186.6189
856.1588,1183.7147
783.3163,1181.9252
792.3259,1179.0061
790.4041,1173.1837
788.3075,1168.1443
771.5768,1182.7777
735.302,1174.3562
772.1487,1173.1318
844.1531,1180.9263
933.1032,1170.6804
901.8816,1169.1107
822.7894,1165.4543
848.9929,1165.3217
776.5838,1109.5505
781.0117,1109.3413
781.496,1103.8187
767.5082,1084.5193
716.6243,1111.7871
748.6982,1096.3342
749.0649,1092.4999
748.9877,1087.1178
690.3397,1092.3264
736.3879,1083.7611
747.587,1074.0376
786.2489,1071.0194
744.9128,1048.3467
945.7537,1531.3774
948.8242,1534.8286
998.116,1546.3585
769.066,1588.8351
776.986,1591.2521
988.3183,1598.144
928.8079,1558.9996
1008.5137,1568.0116
1063.3241,1548.6559
926.4766,1540.0226
929.7469,1516.075
949.8294,1498.8485
902.8177,1463.8279
864.8666,1455.6895
948.2924,1416.6943
980.7245,1413.2379
973.1556,1362.8418
869.3188,1243.9816
829.3087,1204.6547
856.7522,1250.0548
815.5933,1204.7188
868.0536,1185.4368
783.3111,1115.3395
651.6758,1138.6519
794.9833,1094.949
707.9508,1104.6792
746.8307,1061.5166
1304.9767,1090.9965
719.9734,1067.8947
788.0021,1055.0898
954.908,1544.5234
935.9388,1522.1476
