Class_RAdeg,Class_DEdeg,EW(Ha)_2,age
100.229794,9.555198,6.2,5500000
100.2304700254,9.5021699893,2.4,6300000
100.23747,9.550377,6.9,7100000
100.240255,9.530597,5.5,2600000
100.240674,9.514013,7.3,1200000
100.252133,9.487801,16.6,1100000
100.260767,9.586971,1.3,3900000
100.2628500104,9.4846030066,14.6,2400000
100.264572,9.521802,0.3,8200000
100.287865011,9.5025220136,27,1600000
100.300603,9.497885,2.8,1500000
100.310237,9.55598,1.9,1700000
100.3210700001,9.5478699888,2.1,3200000
100.326196,9.47589,6.2,3000000
100.3302300094,9.5135390017,9.5,3800000
100.331807,9.529026,1.5,3300000
100.338274,9.537422,5.8,2700000
100.3484400101,9.5638260026,5.1,7600000
100.363757,9.535114,18.8,5200000
