RA2000,DEC2000,_RAJ2000,_DEJ2000,DS,RAJ2000,DEJ2000,Vmag,V-Rc,V-Ic,Jmag,J-H,H-K,SpType,EW(Ha),EW(Li),logL,Separation
100.349125,9.5657222222,100.34854,9.56397,456,06 41 23.65,+09 33 50.3,19.42,0.74,2.24,15.6,0.54,0.16,M3.5:,5.1,,,6.6410572492
100.3382916667,9.5373833333,100.33825,9.5375,448,06 41 21.18,+09 32 15.0,17.85,0.97,2.35,14.08,0.67,0.22,M2.5,5.8,0.55,31.19,0.4452889938
100.3510833333,9.5317083333,100.36379,9.53522,463,06 41 27.31,+09 32 06.8,18.62,1.05,2.95,14.02,0.67,0.2,M3:,18.8,,,46.8501181542
100.326625,9.524875,100.33179,9.529,441,06 41 19.63,+09 31 44.4,14.39,0.69,1.44,11.93,0.65,0.17,K5,1.5,,31.06,23.5963604322
100.33025,9.513525,100.33025,9.51364,440,06 41 19.26,+09 30 49.1,19.77,1.11,3.36,14.83,0.69,0.31,M5,9.5,0.39,,0.414
100.32625,9.475825,100.32613,9.47583,436,06 41 18.27,+09 28 33.0,18.15,0.96,2.5,14.33,0.7,0.25,M0,6.2,,29.77,0.426485441
100.268,9.5966111111,100.26796,9.59269,312,06 41 04.31,+09 35 33.7,22.73,1.47,3.94,16.2,1.18,0.62,M,86.8,,,14.1167140628
100.2607916667,9.5869805556,100.26075,9.58711,287,06 41 02.58,+09 35 13.6,15.37,0.76,1.48,12.85,0.63,0.18,K5,1.3,,30.59,0.4889088935
100.2303333333,9.5569194444,100.22979,9.55536,212,06 40 55.15,+09 33 19.3,19.71,1.02,2.91,15.35,0.76,0.09,M5,6.2,,,5.9361171514
100.2460416667,9.5505055556,100.2375,9.55056,237,06 40 57.00,+09 33 02.0,20.34,1.77,3.85,13.8,1.3,0.53,M3.5,6.9,0.56,30.26,30.3244277222
100.24025,9.5305861111,100.24025,9.53075,241,06 40 57.66,+09 31 50.7,18.96,1.03,2.95,14.49,0.6,0.25,M5,5.5,0.7,,0.59
100.2645833333,9.5217722222,100.26271,9.52108,295,06 41 03.05,+09 31 15.9,18.71,1.05,2.33,15,0.49,0.21,M2,0.3,,,7.1026127065
100.24075,9.5139583333,100.24075,9.51389,242,06 40 57.78,+09 30 50.0,16.5,0.95,2.02,12.95,0.84,0.29,K7,7.3,0.46,30.13,0.246
100.2304583333,9.5021583333,100.2305,9.50233,215,06 40 55.32,+09 30 08.4,19.8,0.98,3.08,15.2,0.75,0.16,M5,2.4,0.63,,0.6354610901
100.252125,9.4877333333,100.25208,9.48789,271,06 41 00.50,+09 29 16.4,14.45,0.68,1.36,12.45,0.8,0.43,K4,16.6,,30.65,0.5861969901
100.262875,9.48455,100.26288,9.48447,296,06 41 03.09,+09 29 04.1,18.45,0.98,2.74,14.29,0.71,0.27,M,14.6,,,0.2885467076
100.300625,9.4978222222,100.30062,9.49789,392,06 41 12.15,+09 29 52.4,17.97,0.99,2.81,13.66,0.71,0.4,,2.8,,,0.2446450039
100.287875,9.502525,100.28792,9.50236,376,06 41 09.10,+09 30 08.5,16.07,0.99,2.03,12.95,0.98,0.42,K7,27,0.42,30.09,0.6151135915
100.2798333333,9.4581527778,100.27975,9.45817,354,06 41 07.14,+09 27 29.4,14.95,0.65,1.35,12.55,0.9,0.61,,42.8,,31.81,0.3023469643
100.281,9.5760083333,100.28092,9.57608,361,06 41 07.42,+09 34 33.9,19.77,1.2,3.01,15.15,0.68,0.16,M4,52.6,0.7,,0.3836829005
100.3102916667,9.55595,100.31012,9.55603,411,06 41 14.43,+09 33 21.7,15.51,0.9,1.75,12.6,0.66,0.21,K5,1.9,0.5,30.89,0.6740491562
100.3210833333,9.547875,100.32108,9.54797,426,06 41 17.06,+09 32 52.7,18.13,0.98,2.46,14.27,0.69,0.22,M2.5,2.1,0.73,,0.3422046727
